<?xml version="1.0" encoding="utf-8"?>
<COLLADA xmlns="http://www.collada.org/2005/11/COLLADASchema" version="1.4.1" xmlns:xsi="http://www.w3.org/2001/XMLSchema-instance">
  <asset>
    <contributor>
      <author>Blender User</author>
      <authoring_tool>Blender 2.91.0 commit date:1970-01-01, commit time:00:00, hash:unknown</authoring_tool>
    </contributor>
    <created>2021-02-22T22:20:34</created>
    <modified>2021-02-22T22:20:34</modified>
    <unit name="meter" meter="1"/>
    <up_axis>Z_UP</up_axis>
  </asset>
  <library_effects>
    <effect id="Wood-effect">
      <profile_COMMON>
        <technique sid="common">
          <lambert>
            <emission>
              <color sid="emission">0 0 0 1</color>
            </emission>
            <diffuse>
              <color sid="diffuse">0.8000001 0.3993539 0.1592452 1</color>
            </diffuse>
            <index_of_refraction>
              <float sid="ior">1.45</float>
            </index_of_refraction>
          </lambert>
        </technique>
      </profile_COMMON>
    </effect>
    <effect id="Matress_Covers-effect">
      <profile_COMMON>
        <technique sid="common">
          <lambert>
            <emission>
              <color sid="emission">0 0 0 1</color>
            </emission>
            <diffuse>
              <color sid="diffuse">0.01373043 0.004134533 0.8000001 1</color>
            </diffuse>
            <index_of_refraction>
              <float sid="ior">1.45</float>
            </index_of_refraction>
          </lambert>
        </technique>
      </profile_COMMON>
    </effect>
    <effect id="Pillow-effect">
      <profile_COMMON>
        <technique sid="common">
          <lambert>
            <emission>
              <color sid="emission">0 0 0 1</color>
            </emission>
            <diffuse>
              <color sid="diffuse">0.1189712 0.8000001 0.01559002 1</color>
            </diffuse>
            <index_of_refraction>
              <float sid="ior">1.45</float>
            </index_of_refraction>
          </lambert>
        </technique>
      </profile_COMMON>
    </effect>
  </library_effects>
  <library_images/>
  <library_materials>
    <material id="Wood-material" name="Wood">
      <instance_effect url="#Wood-effect"/>
    </material>
    <material id="Matress_Covers-material" name="Matress Covers">
      <instance_effect url="#Matress_Covers-effect"/>
    </material>
    <material id="Pillow-material" name="Pillow">
      <instance_effect url="#Pillow-effect"/>
    </material>
  </library_materials>
  <library_geometries>
    <geometry id="Cube_004-mesh" name="Cube.004">
      <mesh>
        <source id="Cube_004-mesh-positions">
          <float_array id="Cube_004-mesh-positions-array" count="312">-1.205825 -0.7585162 0.6091162 -1.205825 -0.7585162 0.7908837 -1.205825 0.7585162 0.6091162 -1.205825 0.7585162 0.7908837 1.399448 -0.7585162 0.6091162 1.399448 -0.7585162 0.7908837 1.399448 0.7585162 0.6091162 1.399448 0.7585162 0.7908837 1.269185 0.7585162 0.6091162 1.269184 0.7585162 0.7908837 1.269184 -0.7585162 0.6091162 1.269185 -0.7585162 0.7908837 1.269184 0.7585162 1.190884 1.399448 0.7585162 1.190884 1.399448 -0.7585162 1.190884 1.269185 -0.7585162 1.190884 1.12 0.72 0.62 1.12 0.72 -0.01999998 1.12 0.48 0.62 1.12 0.48 -0.01999998 0.88 0.72 0.62 0.88 0.72 -0.01999998 0.88 0.48 0.62 0.88 0.48 -0.01999998 -1.12 0.72 0.62 -1.12 0.72 -0.01999998 -1.12 0.48 0.62 -1.12 0.48 -0.01999998 -0.88 0.72 0.62 -0.88 0.72 -0.01999998 -0.88 0.48 0.62 -0.88 0.48 -0.01999998 1.12 -0.72 0.62 1.12 -0.72 -0.01999998 1.12 -0.48 0.62 1.12 -0.48 -0.01999998 0.88 -0.72 0.62 0.88 -0.72 -0.01999998 0.88 -0.48 0.62 0.88 -0.48 -0.01999998 -1.12 -0.72 0.62 -1.12 -0.72 -0.01999998 -1.12 -0.48 0.62 -1.12 -0.48 -0.01999998 -0.88 -0.72 0.62 -0.88 -0.72 -0.01999998 -0.88 -0.48 0.62 -0.88 -0.48 -0.01999998 -1.104028 0.7585162 0.6091162 -1.104028 -0.7585162 0.7908837 -1.104028 0.7585162 0.7908837 -1.104028 -0.7585162 0.6091162 -1.205825 -0.7585162 0.9908837 -1.205825 0.7585162 0.9908837 -1.104028 -0.7585162 0.9908837 -1.104028 0.7585162 0.9908837 -1.08582 -0.7053936 0.791001 -1.08582 -0.7195731 0.8051806 -1.1 -0.7053936 0.8051806 -1.08582 -0.7195731 0.9948195 -1.08582 -0.7053936 1.008999 -1.1 -0.7053936 0.9948195 -1.08582 0.7053936 0.791001 -1.1 0.7053936 0.8051806 -1.08582 0.7195731 0.8051806 -1.08582 0.7053936 1.008999 -1.08582 0.7195731 0.9948195 -1.1 0.7053936 0.9948195 1.28582 -0.7053936 0.791001 1.3 -0.7053936 0.8051806 1.28582 -0.7195731 0.8051806 1.28582 -0.7053936 1.008999 1.28582 -0.7195731 0.9948195 1.3 -0.7053936 0.9948195 1.28582 0.7053936 0.791001 1.28582 0.7195731 0.8051806 1.3 0.7053936 0.8051806 1.28582 0.7053936 1.008999 1.3 0.7053936 0.9948195 1.28582 0.7195731 0.9948195 0.8288097 -0.337252 1.008505 0.8288097 -0.358049 1.041741 0.7955738 -0.337252 1.041741 0.8288097 -0.358049 1.073265 0.8288097 -0.337252 1.106501 0.7955738 -0.337252 1.073265 0.8288097 0.337252 1.008505 0.7955738 0.337252 1.041741 0.8288097 0.358049 1.041741 0.8288097 0.337252 1.106501 0.8288097 0.358049 1.073265 0.7955738 0.337252 1.073265 1.229099 -0.337252 1.008505 1.262335 -0.337252 1.041741 1.229099 -0.358049 1.041741 1.229099 -0.337252 1.106501 1.229099 -0.358049 1.073265 1.262335 -0.337252 1.073265 1.229099 0.337252 1.008505 1.229099 0.358049 1.041741 1.262335 0.337252 1.041741 1.229099 0.337252 1.106501 1.262335 0.337252 1.073265 1.229099 0.358049 1.073265</float_array>
          <technique_common>
            <accessor source="#Cube_004-mesh-positions-array" count="104" stride="3">
              <param name="X" type="float"/>
              <param name="Y" type="float"/>
              <param name="Z" type="float"/>
            </accessor>
          </technique_common>
        </source>
        <source id="Cube_004-mesh-normals">
          <float_array id="Cube_004-mesh-normals-array" count="207">-1 0 0 0 1 0 1 0 0 0 -1 0 0 0 -1 0 -1 5.43581e-7 0 0 1 -1 -1.96451e-7 0 0 -1 5.52697e-7 -0.5773503 -0.5773503 -0.5773503 -0.5773467 -0.5773521 0.5773521 -0.5773503 0.5773503 -0.5773503 -0.5773467 0.5773521 0.5773521 0.5773503 -0.5773503 -0.5773503 0.5773467 -0.5773521 0.5773521 0.5773503 0.5773503 -0.5773503 0.5773467 0.5773521 0.5773521 -0.7071049 0 -0.7071087 -0.7071026 -0.707111 0 -0.7071092 0 0.7071045 -0.7071026 0.707111 0 0 0.7071062 -0.7071074 0 0.7071062 0.7071074 0.7071026 0.707111 0 0.7071049 0 -0.7071087 0.7071092 0 0.7071045 0.7071105 -0.7071031 0 0 -0.7071062 -0.7071074 0 -0.7071062 0.7071074 -0.4686042 -0.7488802 -0.4686029 -0.4686042 -0.7488802 0.4686029 -0.4686042 0.7488802 -0.4686029 -0.4686042 0.7488802 0.4686029 0.4686033 -0.7488813 -0.468602 0.4686033 -0.7488813 0.468602 0.4686033 0.7488813 -0.468602 0.4686033 0.7488813 0.468602 -0.7071054 0 -0.7071082 -0.5304516 -0.8477153 0 -0.7071054 0 0.7071082 -0.5304495 0.8477166 0 0 0.8477161 -0.5304501 0 0.8477161 0.5304502 0.5304508 0.8477157 0 0.7071054 0 -0.7071082 0.7071054 0 0.7071082 0.5304481 -0.8477175 0 0 -0.8477161 -0.5304502 0 -0.8477161 0.5304501 0 1 -6.29334e-7 0 1 -4.1923e-7 -0.7071105 -0.7071031 0 -0.7071049 0 0.7071087 -0.7071105 0.7071031 0 0.7071105 0.7071031 0 0.7071049 0 0.7071087 0.7071026 -0.707111 0 -0.7071092 0 -0.7071045 -0.5304481 -0.8477175 0 -0.7071092 0 0.7071045 -0.5304502 0.8477161 0 0 0.8477169 -0.5304489 0 0.8477171 0.5304488 0.5304502 0.8477161 0 0.7071092 0 -0.7071045 0.7071092 0 0.7071045 0.530453 -0.8477145 0 0 -0.8477171 -0.5304488 0 -0.8477169 0.5304489</float_array>
          <technique_common>
            <accessor source="#Cube_004-mesh-normals-array" count="69" stride="3">
              <param name="X" type="float"/>
              <param name="Y" type="float"/>
              <param name="Z" type="float"/>
            </accessor>
          </technique_common>
        </source>
        <source id="Cube_004-mesh-map-0">
          <float_array id="Cube_004-mesh-map-0-array" count="1080">0.625 0 0.375 0.25 0.375 0 0.375 0.4875 0.625 0.5 0.375 0.5 0.625 0.5 0.375 0.75 0.375 0.5 0.625 0.9902316 0.375 1 0.375 0.9902316 0.3625 0.5 0.375 0.75 0.3625 0.75 0.625 0 0.625 0.25 0.625 0.25 0.625 0.5 0.625 0.75 0.625 0.75 0.3625 0.5 0.1347684 0.75 0.1347684 0.5 0.375 0.75 0.625 0.7625 0.375 0.7625 0.625 0.2597684 0.375 0.4875 0.375 0.2597684 0.625 0.5 0.6375 0.75 0.625 0.75 0.625 0.75 0.625 0.7625 0.625 0.7625 0.625 0.4875 0.625 0.5 0.625 0.5 0.6375 0.75 0.6375 0.5 0.6375 0.5 0.875 0.5 0.625 0.75 0.625 0.5 0.625 0.75 0.375 1 0.375 0.75 0.625 0 0.375 0.25 0.375 0 0.375 0.5 0.125 0.75 0.125 0.5 0.625 0.5 0.375 0.75 0.375 0.5 0.625 0.25 0.375 0.5 0.375 0.25 0.625 0.75 0.875 0.5 0.625 0.5 0.375 1 0.625 0.75 0.375 0.75 0.375 0.25 0.625 0 0.375 0 0.125 0.75 0.375 0.5 0.125 0.5 0.375 0.75 0.625 0.5 0.375 0.5 0.375 0.5 0.625 0.25 0.375 0.25 0.625 0.75 0.875 0.5 0.625 0.5 0.375 1 0.625 0.75 0.375 0.75 0.375 0.25 0.625 0 0.375 0 0.125 0.75 0.375 0.5 0.125 0.5 0.375 0.75 0.625 0.5 0.375 0.5 0.375 0.5 0.625 0.25 0.375 0.25 0.875 0.5 0.625 0.75 0.625 0.5 0.625 0.75 0.375 1 0.375 0.75 0.625 0 0.375 0.25 0.375 0 0.375 0.5 0.125 0.75 0.125 0.5 0.625 0.5 0.375 0.75 0.375 0.5 0.625 0.25 0.375 0.5 0.375 0.25 0.625 0.25 0.375 0.2597684 0.375 0.25 0.1347684 0.5 0.125 0.75 0.125 0.5 0.8652316 0.5 0.6375 0.75 0.6375 0.5 0.625 0.7625 0.375 0.9902316 0.375 0.7625 0.875 0.5 0.8652316 0.75 0.8652316 0.5 0.625 0.9902316 0.625 1 0.625 1 0.8652316 0.5 0.8652316 0.75 0.8652316 0.75 0.625 0.25 0.625 0.2597684 0.625 0.2597684 0.6087389 0.7514771 0.3912611 0.9985229 0.3912611 0.7514771 0.6087388 0.5024632 0.3912611 0.7475368 0.3912611 0.5024632 0.873523 0.5024632 0.6264771 0.7475368 0.6264771 0.5024632 0.6087388 0.002463161 0.3912611 0.2475368 0.3912611 0.002463161 0.6087389 0.2514771 0.3912611 0.4985229 0.3912611 0.251477 0.126477 0.7475368 0.126477 0.75 0.125 0.7475368 0.6087389 0.9985229 0.625 0.998523 0.6087389 1 0.126477 0.5024632 0.125 0.5024632 0.126477 0.5 0.6250001 0.2514771 0.6250001 0.2514771 0.6087389 0.25 0.3735229 0.7475368 0.375 0.7475368 0.3735229 0.75 0.6250001 0.751477 0.6250001 0.751477 0.6087389 0.75 0.373523 0.5024632 0.3735229 0.5 0.375 0.5024632 0.625 0.5024632 0.625 0.5024632 0.6087389 0.5 0.126477 0.7475368 0.125 0.5024632 0.126477 0.5024632 0.6087389 0 0.3912611 0.002463161 0.3912611 0 0.625 0.2475368 0.6087388 0.002463161 0.625 0.002463161 0.3912611 0.251477 0.6087388 0.2475368 0.6087389 0.2514771 0.126477 0.5024632 0.3735229 0.5 0.373523 0.5024632 0.625 0.498523 0.6087389 0.2514771 0.6250001 0.2514771 0.3912611 0.5024632 0.6087389 0.4985229 0.6087388 0.5024632 0.373523 0.5024632 0.3912611 0.7475368 0.3735229 0.7475368 0.6264771 0.7475368 0.6087388 0.5024632 0.6264771 0.5024632 0.3912611 0.7514771 0.6087388 0.7475368 0.6087389 0.7514771 0.3735229 0.7475368 0.126477 0.75 0.126477 0.7475368 0.625 0.998523 0.6087389 0.7514771 0.6250001 0.751477 0.373523 0.5024632 0.126477 0.7475368 0.126477 0.5024632 0.5402114 0.7721217 0.4597886 0.9778783 0.4597886 0.7721218 0.5402115 0.5072606 0.4597885 0.7427394 0.4597886 0.5072605 0.8528783 0.5072606 0.6471217 0.7427395 0.6471217 0.5072606 0.5402115 0.007260501 0.4597885 0.2427394 0.4597886 0.007260501 0.5402114 0.2721217 0.4597886 0.4778783 0.4597886 0.2721217 0.1471217 0.7427395 0.1471217 0.75 0.125 0.7427394 0.5402114 0.9778782 0.625 0.9778783 0.5402114 1 0.1471217 0.5072606 0.125 0.5072606 0.1471217 0.5 0.625 0.2721217 0.625 0.2721217 0.5402115 0.25 0.3528783 0.7427395 0.375 0.7427394 0.3528783 0.75 0.625 0.7721217 0.625 0.7721217 0.5402115 0.75 0.3528783 0.5072606 0.3528783 0.5 0.375 0.5072606 0.625 0.5072605 0.625 0.5072605 0.5402115 0.5 0.1471217 0.7427395 0.125 0.5072606 0.1471217 0.5072606 0.5402115 0 0.4597886 0.007260501 0.4597885 0 0.625 0.2427394 0.5402115 0.007260501 0.625 0.007260501 0.4597886 0.2721217 0.5402115 0.2427394 0.5402114 0.2721217 0.1471217 0.5072606 0.3528783 0.5 0.3528783 0.5072606 0.625 0.4778783 0.5402114 0.2721217 0.625 0.2721217 0.4597886 0.5072605 0.5402114 0.4778783 0.5402115 0.5072606 0.3528783 0.5072606 0.4597885 0.7427394 0.3528783 0.7427395 0.6471217 0.7427395 0.5402115 0.5072606 0.6471217 0.5072606 0.4597886 0.7721218 0.5402115 0.7427394 0.5402114 0.7721217 0.3528783 0.7427395 0.1471217 0.75 0.1471217 0.7427395 0.625 0.9778783 0.5402114 0.7721217 0.625 0.7721217 0.3528783 0.5072606 0.1471217 0.7427395 0.1471217 0.5072606 0.625 0 0.625 0.25 0.375 0.25 0.375 0.4875 0.625 0.4875 0.625 0.5 0.625 0.5 0.625 0.75 0.375 0.75 0.625 0.9902316 0.625 1 0.375 1 0.3625 0.5 0.375 0.5 0.375 0.75 0.625 0 0.625 0 0.625 0.25 0.625 0.5 0.625 0.5 0.625 0.75 0.3625 0.5 0.3625 0.75 0.1347684 0.75 0.375 0.75 0.625 0.75 0.625 0.7625 0.625 0.2597684 0.625 0.4875 0.375 0.4875 0.625 0.5 0.6375 0.5 0.6375 0.75 0.625 0.75 0.625 0.75 0.625 0.7625 0.625 0.4875 0.625 0.4875 0.625 0.5 0.6375 0.75 0.6375 0.75 0.6375 0.5 0.875 0.5 0.875 0.75 0.625 0.75 0.625 0.75 0.625 1 0.375 1 0.625 0 0.625 0.25 0.375 0.25 0.375 0.5 0.375 0.75 0.125 0.75 0.625 0.5 0.625 0.75 0.375 0.75 0.625 0.25 0.625 0.5 0.375 0.5 0.625 0.75 0.875 0.75 0.875 0.5 0.375 1 0.625 1 0.625 0.75 0.375 0.25 0.625 0.25 0.625 0 0.125 0.75 0.375 0.75 0.375 0.5 0.375 0.75 0.625 0.75 0.625 0.5 0.375 0.5 0.625 0.5 0.625 0.25 0.625 0.75 0.875 0.75 0.875 0.5 0.375 1 0.625 1 0.625 0.75 0.375 0.25 0.625 0.25 0.625 0 0.125 0.75 0.375 0.75 0.375 0.5 0.375 0.75 0.625 0.75 0.625 0.5 0.375 0.5 0.625 0.5 0.625 0.25 0.875 0.5 0.875 0.75 0.625 0.75 0.625 0.75 0.625 1 0.375 1 0.625 0 0.625 0.25 0.375 0.25 0.375 0.5 0.375 0.75 0.125 0.75 0.625 0.5 0.625 0.75 0.375 0.75 0.625 0.25 0.625 0.5 0.375 0.5 0.625 0.25 0.625 0.2597684 0.375 0.2597684 0.1347684 0.5 0.1347684 0.75 0.125 0.75 0.8652316 0.5 0.8652316 0.75 0.6375 0.75 0.625 0.7625 0.625 0.9902316 0.375 0.9902316 0.875 0.5 0.875 0.75 0.8652316 0.75 0.625 0.9902316 0.625 0.9902316 0.625 1 0.8652316 0.5 0.8652316 0.5 0.8652316 0.75 0.625 0.25 0.625 0.25 0.625 0.2597684 0.6087389 0.7514771 0.6087389 0.9985229 0.3912611 0.9985229 0.6087388 0.5024632 0.6087388 0.7475368 0.3912611 0.7475368 0.873523 0.5024632 0.8735229 0.7475368 0.6264771 0.7475368 0.6087388 0.002463161 0.6087388 0.2475368 0.3912611 0.2475368 0.6087389 0.2514771 0.6087389 0.4985229 0.3912611 0.4985229 0.126477 0.7475368 0.125 0.7475368 0.125 0.5024632 0.6087389 0 0.6087388 0.002463161 0.3912611 0.002463161 0.625 0.2475368 0.6087388 0.2475368 0.6087388 0.002463161 0.3912611 0.251477 0.3912611 0.2475368 0.6087388 0.2475368 0.126477 0.5024632 0.126477 0.5 0.3735229 0.5 0.625 0.498523 0.6087389 0.4985229 0.6087389 0.2514771 0.3912611 0.5024632 0.3912611 0.4985229 0.6087389 0.4985229 0.373523 0.5024632 0.3912611 0.5024632 0.3912611 0.7475368 0.6264771 0.7475368 0.6087388 0.7475368 0.6087388 0.5024632 0.3912611 0.7514771 0.3912611 0.7475368 0.6087388 0.7475368 0.3735229 0.7475368 0.3735229 0.75 0.126477 0.75 0.625 0.998523 0.6087389 0.9985229 0.6087389 0.7514771 0.373523 0.5024632 0.3735229 0.7475368 0.126477 0.7475368 0.5402114 0.7721217 0.5402114 0.9778782 0.4597886 0.9778783 0.5402115 0.5072606 0.5402115 0.7427394 0.4597885 0.7427394 0.8528783 0.5072606 0.8528783 0.7427395 0.6471217 0.7427395 0.5402115 0.007260501 0.5402115 0.2427394 0.4597885 0.2427394 0.5402114 0.2721217 0.5402114 0.4778783 0.4597886 0.4778783 0.1471217 0.7427395 0.125 0.7427394 0.125 0.5072606 0.5402115 0 0.5402115 0.007260501 0.4597886 0.007260501 0.625 0.2427394 0.5402115 0.2427394 0.5402115 0.007260501 0.4597886 0.2721217 0.4597885 0.2427394 0.5402115 0.2427394 0.1471217 0.5072606 0.1471217 0.5 0.3528783 0.5 0.625 0.4778783 0.5402114 0.4778783 0.5402114 0.2721217 0.4597886 0.5072605 0.4597886 0.4778783 0.5402114 0.4778783 0.3528783 0.5072606 0.4597886 0.5072605 0.4597885 0.7427394 0.6471217 0.7427395 0.5402115 0.7427394 0.5402115 0.5072606 0.4597886 0.7721218 0.4597885 0.7427394 0.5402115 0.7427394 0.3528783 0.7427395 0.3528783 0.75 0.1471217 0.75 0.625 0.9778783 0.5402114 0.9778782 0.5402114 0.7721217 0.3528783 0.5072606 0.3528783 0.7427395 0.1471217 0.7427395</float_array>
          <technique_common>
            <accessor source="#Cube_004-mesh-map-0-array" count="540" stride="2">
              <param name="S" type="float"/>
              <param name="T" type="float"/>
            </accessor>
          </technique_common>
        </source>
        <vertices id="Cube_004-mesh-vertices">
          <input semantic="POSITION" source="#Cube_004-mesh-positions"/>
        </vertices>
        <triangles material="Wood-material" count="92">
          <input semantic="VERTEX" source="#Cube_004-mesh-vertices" offset="0"/>
          <input semantic="NORMAL" source="#Cube_004-mesh-normals" offset="1"/>
          <input semantic="TEXCOORD" source="#Cube_004-mesh-map-0" offset="2" set="0"/>
          <p>1 0 0 2 0 1 0 0 2 8 1 3 7 1 4 6 1 5 7 2 6 4 2 7 6 2 8 49 3 9 0 3 10 51 3 11 8 4 12 4 4 13 10 4 14 1 0 15 53 0 16 3 0 17 7 2 18 14 2 19 5 2 20 8 4 21 51 4 22 48 4 23 4 5 24 11 5 25 10 5 26 50 1 27 8 1 28 48 1 29 13 6 30 15 6 31 14 6 32 5 3 33 15 3 34 11 3 35 9 1 36 13 1 37 7 1 38 11 7 39 12 7 40 9 7 41 20 6 42 18 6 43 16 6 44 18 3 45 23 3 46 19 3 47 22 0 48 21 0 49 23 0 50 17 4 51 23 4 52 21 4 53 16 2 54 19 2 55 17 2 56 20 1 57 17 1 58 21 1 59 26 6 60 28 6 61 24 6 62 31 3 63 26 3 64 27 3 65 29 2 66 30 2 67 31 2 68 31 4 69 25 4 70 29 4 71 27 0 72 24 0 73 25 0 74 25 1 75 28 1 76 29 1 77 34 6 78 36 6 79 32 6 80 39 1 81 34 1 82 35 1 83 37 0 84 38 0 85 39 0 86 39 4 87 33 4 88 37 4 89 35 2 90 32 2 91 33 2 92 33 3 93 36 3 94 37 3 95 44 6 96 42 6 97 40 6 98 42 1 99 47 1 100 43 1 101 46 2 102 45 2 103 47 2 104 41 4 105 47 4 106 45 4 107 40 0 108 43 0 109 41 0 110 44 3 111 41 3 112 45 3 113 3 1 114 48 1 115 2 1 116 48 4 117 0 4 118 2 4 119 50 6 120 11 6 121 9 6 122 11 8 123 51 8 124 10 8 125 53 6 126 54 6 127 55 6 128 49 3 129 52 3 130 1 3 131 50 2 132 54 2 133 49 2 134 3 1 135 55 1 136 50 1 137 1 0 294 3 0 295 2 0 296 8 49 297 9 49 298 7 49 299 7 2 300 5 2 301 4 2 302 49 3 303 1 3 304 0 3 305 8 4 306 6 4 307 4 4 308 1 0 309 52 0 310 53 0 311 7 2 312 13 2 313 14 2 314 8 4 315 10 4 316 51 4 317 4 3 318 5 3 319 11 3 320 50 50 321 9 50 322 8 50 323 13 6 324 12 6 325 15 6 326 5 3 327 14 3 328 15 3 329 9 1 330 12 1 331 13 1 332 11 0 333 15 0 334 12 0 335 20 6 336 22 6 337 18 6 338 18 3 339 22 3 340 23 3 341 22 0 342 20 0 343 21 0 344 17 4 345 19 4 346 23 4 347 16 2 348 18 2 349 19 2 350 20 1 351 16 1 352 17 1 353 26 6 354 30 6 355 28 6 356 31 3 357 30 3 358 26 3 359 29 2 360 28 2 361 30 2 362 31 4 363 27 4 364 25 4 365 27 0 366 26 0 367 24 0 368 25 1 369 24 1 370 28 1 371 34 6 372 38 6 373 36 6 374 39 1 375 38 1 376 34 1 377 37 0 378 36 0 379 38 0 380 39 4 381 35 4 382 33 4 383 35 2 384 34 2 385 32 2 386 33 3 387 32 3 388 36 3 389 44 6 390 46 6 391 42 6 392 42 1 393 46 1 394 47 1 395 46 2 396 44 2 397 45 2 398 41 4 399 43 4 400 47 4 401 40 0 402 42 0 403 43 0 404 44 3 405 40 3 406 41 3 407 3 1 408 50 1 409 48 1 410 48 4 411 51 4 412 0 4 413 50 6 414 49 6 415 11 6 416 11 3 417 49 3 418 51 3 419 53 6 420 52 6 421 54 6 422 49 3 423 54 3 424 52 3 425 50 2 426 55 2 427 54 2 428 3 1 429 53 1 430 55 1 431</p>
        </triangles>
        <triangles material="Matress_Covers-material" count="44">
          <input semantic="VERTEX" source="#Cube_004-mesh-vertices" offset="0"/>
          <input semantic="NORMAL" source="#Cube_004-mesh-normals" offset="1"/>
          <input semantic="TEXCOORD" source="#Cube_004-mesh-map-0" offset="2" set="0"/>
          <p>72 3 138 57 3 139 70 3 140 78 2 141 69 2 142 76 2 143 65 6 144 71 6 145 77 6 146 61 0 147 63 0 148 58 0 149 66 1 150 75 1 151 64 1 152 56 9 153 57 9 154 58 9 155 59 10 156 60 10 157 61 10 158 62 11 159 63 11 160 64 11 161 65 12 162 66 12 163 67 12 164 68 13 165 69 13 166 70 13 167 71 14 168 72 14 169 73 14 170 74 15 171 75 15 172 76 15 173 77 16 174 78 16 175 79 16 176 56 17 177 63 17 178 62 17 179 59 18 180 58 18 181 57 18 182 65 19 183 61 19 184 60 19 185 64 20 186 67 20 187 66 20 188 62 21 189 75 21 190 74 21 191 77 22 192 66 22 193 65 22 194 76 23 195 79 23 196 78 23 197 74 24 198 69 24 199 68 24 200 71 25 201 78 25 202 77 25 203 70 26 204 73 26 205 72 26 206 68 27 207 57 27 208 56 27 209 60 28 210 72 28 211 71 28 212 74 4 213 56 4 214 62 4 215 72 3 432 59 3 433 57 3 434 78 2 435 73 2 436 69 2 437 65 6 438 60 6 439 71 6 440 61 0 441 67 0 442 63 0 443 66 1 444 79 1 445 75 1 446 56 17 447 58 17 448 63 17 449 59 51 450 61 51 451 58 51 452 65 52 453 67 52 454 61 52 455 64 53 456 63 53 457 67 53 458 62 21 459 64 21 460 75 21 461 77 22 462 79 22 463 66 22 464 76 54 465 75 54 466 79 54 467 74 24 468 76 24 469 69 24 470 71 55 471 73 55 472 78 55 473 70 56 474 69 56 475 73 56 476 68 27 477 70 27 478 57 27 479 60 28 480 59 28 481 72 28 482 74 4 483 68 4 484 56 4 485</p>
        </triangles>
        <triangles material="Pillow-material" count="44">
          <input semantic="VERTEX" source="#Cube_004-mesh-vertices" offset="0"/>
          <input semantic="NORMAL" source="#Cube_004-mesh-normals" offset="1"/>
          <input semantic="TEXCOORD" source="#Cube_004-mesh-map-0" offset="2" set="0"/>
          <p>96 3 216 81 3 217 94 3 218 102 2 219 93 2 220 100 2 221 89 6 222 95 6 223 101 6 224 85 0 225 87 0 226 82 0 227 90 1 228 99 1 229 88 1 230 80 29 231 81 29 232 82 29 233 83 30 234 84 30 235 85 30 236 86 31 237 87 31 238 88 31 239 89 32 240 90 32 241 91 32 242 92 33 243 93 33 244 94 33 245 95 34 246 96 34 247 97 34 248 98 35 249 99 35 250 100 35 251 101 36 252 102 36 253 103 36 254 80 37 255 87 37 256 86 37 257 83 38 258 82 38 259 81 38 260 89 39 261 85 39 262 84 39 263 88 40 264 91 40 265 90 40 266 86 41 267 99 41 268 98 41 269 101 42 270 90 42 271 89 42 272 100 43 273 103 43 274 102 43 275 98 44 276 93 44 277 92 44 278 95 45 279 102 45 280 101 45 281 94 46 282 97 46 283 96 46 284 92 47 285 81 47 286 80 47 287 84 48 288 96 48 289 95 48 290 98 4 291 80 4 292 86 4 293 96 3 486 83 3 487 81 3 488 102 2 489 97 2 490 93 2 491 89 6 492 84 6 493 95 6 494 85 0 495 91 0 496 87 0 497 90 1 498 103 1 499 99 1 500 80 57 501 82 57 502 87 57 503 83 58 504 85 58 505 82 58 506 89 59 507 91 59 508 85 59 509 88 60 510 87 60 511 91 60 512 86 61 513 88 61 514 99 61 515 101 62 516 103 62 517 90 62 518 100 63 519 99 63 520 103 63 521 98 64 522 100 64 523 93 64 524 95 65 525 97 65 526 102 65 527 94 66 528 93 66 529 97 66 530 92 67 531 94 67 532 81 67 533 84 68 534 83 68 535 96 68 536 98 4 537 92 4 538 80 4 539</p>
        </triangles>
      </mesh>
    </geometry>
    <geometry id="Cube_001-mesh" name="Cube.001">
      <mesh>
        <source id="Cube_001-mesh-positions">
          <float_array id="Cube_001-mesh-positions-array" count="312">-1.205825 -0.7585162 0.6091162 -1.205825 -0.7585162 0.7908837 -1.205825 0.7585162 0.6091162 -1.205825 0.7585162 0.7908837 1.399448 -0.7585162 0.6091162 1.399448 -0.7585162 0.7908837 1.399448 0.7585162 0.6091162 1.399448 0.7585162 0.7908837 1.269185 0.7585162 0.6091162 1.269184 0.7585162 0.7908837 1.269184 -0.7585162 0.6091162 1.269185 -0.7585162 0.7908837 1.269184 0.7585162 1.190884 1.399448 0.7585162 1.190884 1.399448 -0.7585162 1.190884 1.269185 -0.7585162 1.190884 1.12 0.72 0.62 1.12 0.72 -0.01999998 1.12 0.48 0.62 1.12 0.48 -0.01999998 0.88 0.72 0.62 0.88 0.72 -0.01999998 0.88 0.48 0.62 0.88 0.48 -0.01999998 -1.12 0.72 0.62 -1.12 0.72 -0.01999998 -1.12 0.48 0.62 -1.12 0.48 -0.01999998 -0.88 0.72 0.62 -0.88 0.72 -0.01999998 -0.88 0.48 0.62 -0.88 0.48 -0.01999998 1.12 -0.72 0.62 1.12 -0.72 -0.01999998 1.12 -0.48 0.62 1.12 -0.48 -0.01999998 0.88 -0.72 0.62 0.88 -0.72 -0.01999998 0.88 -0.48 0.62 0.88 -0.48 -0.01999998 -1.12 -0.72 0.62 -1.12 -0.72 -0.01999998 -1.12 -0.48 0.62 -1.12 -0.48 -0.01999998 -0.88 -0.72 0.62 -0.88 -0.72 -0.01999998 -0.88 -0.48 0.62 -0.88 -0.48 -0.01999998 -1.104028 0.7585162 0.6091162 -1.104028 -0.7585162 0.7908837 -1.104028 0.7585162 0.7908837 -1.104028 -0.7585162 0.6091162 -1.205825 -0.7585162 0.9908837 -1.205825 0.7585162 0.9908837 -1.104028 -0.7585162 0.9908837 -1.104028 0.7585162 0.9908837 -1.08582 -0.7053936 0.791001 -1.08582 -0.7195731 0.8051806 -1.1 -0.7053936 0.8051806 -1.08582 -0.7195731 0.9948195 -1.08582 -0.7053936 1.008999 -1.1 -0.7053936 0.9948195 -1.08582 0.7053936 0.791001 -1.1 0.7053936 0.8051806 -1.08582 0.7195731 0.8051806 -1.08582 0.7053936 1.008999 -1.08582 0.7195731 0.9948195 -1.1 0.7053936 0.9948195 1.28582 -0.7053936 0.791001 1.3 -0.7053936 0.8051806 1.28582 -0.7195731 0.8051806 1.28582 -0.7053936 1.008999 1.28582 -0.7195731 0.9948195 1.3 -0.7053936 0.9948195 1.28582 0.7053936 0.791001 1.28582 0.7195731 0.8051806 1.3 0.7053936 0.8051806 1.28582 0.7053936 1.008999 1.3 0.7053936 0.9948195 1.28582 0.7195731 0.9948195 0.8288097 -0.337252 1.008505 0.8288097 -0.358049 1.041741 0.7955738 -0.337252 1.041741 0.8288097 -0.358049 1.073265 0.8288097 -0.337252 1.106501 0.7955738 -0.337252 1.073265 0.8288097 0.337252 1.008505 0.7955738 0.337252 1.041741 0.8288097 0.358049 1.041741 0.8288097 0.337252 1.106501 0.8288097 0.358049 1.073265 0.7955738 0.337252 1.073265 1.229099 -0.337252 1.008505 1.262335 -0.337252 1.041741 1.229099 -0.358049 1.041741 1.229099 -0.337252 1.106501 1.229099 -0.358049 1.073265 1.262335 -0.337252 1.073265 1.229099 0.337252 1.008505 1.229099 0.358049 1.041741 1.262335 0.337252 1.041741 1.229099 0.337252 1.106501 1.262335 0.337252 1.073265 1.229099 0.358049 1.073265</float_array>
          <technique_common>
            <accessor source="#Cube_001-mesh-positions-array" count="104" stride="3">
              <param name="X" type="float"/>
              <param name="Y" type="float"/>
              <param name="Z" type="float"/>
            </accessor>
          </technique_common>
        </source>
        <source id="Cube_001-mesh-normals">
          <float_array id="Cube_001-mesh-normals-array" count="207">-1 0 0 0 1 0 1 0 0 0 -1 0 0 0 -1 0 -1 5.43581e-7 0 0 1 -1 -1.96451e-7 0 0 -1 5.52697e-7 -0.5773503 -0.5773503 -0.5773503 -0.5773467 -0.5773521 0.5773521 -0.5773503 0.5773503 -0.5773503 -0.5773467 0.5773521 0.5773521 0.5773503 -0.5773503 -0.5773503 0.5773467 -0.5773521 0.5773521 0.5773503 0.5773503 -0.5773503 0.5773467 0.5773521 0.5773521 -0.7071049 0 -0.7071087 -0.7071026 -0.707111 0 -0.7071092 0 0.7071045 -0.7071026 0.707111 0 0 0.7071062 -0.7071074 0 0.7071062 0.7071074 0.7071026 0.707111 0 0.7071049 0 -0.7071087 0.7071092 0 0.7071045 0.7071105 -0.7071031 0 0 -0.7071062 -0.7071074 0 -0.7071062 0.7071074 -0.4686042 -0.7488802 -0.4686029 -0.4686042 -0.7488802 0.4686029 -0.4686042 0.7488802 -0.4686029 -0.4686042 0.7488802 0.4686029 0.4686033 -0.7488813 -0.468602 0.4686033 -0.7488813 0.468602 0.4686033 0.7488813 -0.468602 0.4686033 0.7488813 0.468602 -0.7071054 0 -0.7071082 -0.5304516 -0.8477153 0 -0.7071054 0 0.7071082 -0.5304495 0.8477166 0 0 0.8477161 -0.5304501 0 0.8477161 0.5304502 0.5304508 0.8477157 0 0.7071054 0 -0.7071082 0.7071054 0 0.7071082 0.5304481 -0.8477175 0 0 -0.8477161 -0.5304502 0 -0.8477161 0.5304501 0 1 -6.29334e-7 0 1 -4.1923e-7 -0.7071105 -0.7071031 0 -0.7071049 0 0.7071087 -0.7071105 0.7071031 0 0.7071105 0.7071031 0 0.7071049 0 0.7071087 0.7071026 -0.707111 0 -0.7071092 0 -0.7071045 -0.5304481 -0.8477175 0 -0.7071092 0 0.7071045 -0.5304502 0.8477161 0 0 0.8477169 -0.5304489 0 0.8477171 0.5304488 0.5304502 0.8477161 0 0.7071092 0 -0.7071045 0.7071092 0 0.7071045 0.530453 -0.8477145 0 0 -0.8477171 -0.5304488 0 -0.8477169 0.5304489</float_array>
          <technique_common>
            <accessor source="#Cube_001-mesh-normals-array" count="69" stride="3">
              <param name="X" type="float"/>
              <param name="Y" type="float"/>
              <param name="Z" type="float"/>
            </accessor>
          </technique_common>
        </source>
        <source id="Cube_001-mesh-map-0">
          <float_array id="Cube_001-mesh-map-0-array" count="1080">0.625 0 0.375 0.25 0.375 0 0.375 0.4875 0.625 0.5 0.375 0.5 0.625 0.5 0.375 0.75 0.375 0.5 0.625 0.9902316 0.375 1 0.375 0.9902316 0.3625 0.5 0.375 0.75 0.3625 0.75 0.625 0 0.625 0.25 0.625 0.25 0.625 0.5 0.625 0.75 0.625 0.75 0.3625 0.5 0.1347684 0.75 0.1347684 0.5 0.375 0.75 0.625 0.7625 0.375 0.7625 0.625 0.2597684 0.375 0.4875 0.375 0.2597684 0.625 0.5 0.6375 0.75 0.625 0.75 0.625 0.75 0.625 0.7625 0.625 0.7625 0.625 0.4875 0.625 0.5 0.625 0.5 0.6375 0.75 0.6375 0.5 0.6375 0.5 0.875 0.5 0.625 0.75 0.625 0.5 0.625 0.75 0.375 1 0.375 0.75 0.625 0 0.375 0.25 0.375 0 0.375 0.5 0.125 0.75 0.125 0.5 0.625 0.5 0.375 0.75 0.375 0.5 0.625 0.25 0.375 0.5 0.375 0.25 0.625 0.75 0.875 0.5 0.625 0.5 0.375 1 0.625 0.75 0.375 0.75 0.375 0.25 0.625 0 0.375 0 0.125 0.75 0.375 0.5 0.125 0.5 0.375 0.75 0.625 0.5 0.375 0.5 0.375 0.5 0.625 0.25 0.375 0.25 0.625 0.75 0.875 0.5 0.625 0.5 0.375 1 0.625 0.75 0.375 0.75 0.375 0.25 0.625 0 0.375 0 0.125 0.75 0.375 0.5 0.125 0.5 0.375 0.75 0.625 0.5 0.375 0.5 0.375 0.5 0.625 0.25 0.375 0.25 0.875 0.5 0.625 0.75 0.625 0.5 0.625 0.75 0.375 1 0.375 0.75 0.625 0 0.375 0.25 0.375 0 0.375 0.5 0.125 0.75 0.125 0.5 0.625 0.5 0.375 0.75 0.375 0.5 0.625 0.25 0.375 0.5 0.375 0.25 0.625 0.25 0.375 0.2597684 0.375 0.25 0.1347684 0.5 0.125 0.75 0.125 0.5 0.8652316 0.5 0.6375 0.75 0.6375 0.5 0.625 0.7625 0.375 0.9902316 0.375 0.7625 0.875 0.5 0.8652316 0.75 0.8652316 0.5 0.625 0.9902316 0.625 1 0.625 1 0.8652316 0.5 0.8652316 0.75 0.8652316 0.75 0.625 0.25 0.625 0.2597684 0.625 0.2597684 0.6087389 0.7514771 0.3912611 0.9985229 0.3912611 0.7514771 0.6087388 0.5024632 0.3912611 0.7475368 0.3912611 0.5024632 0.873523 0.5024632 0.6264771 0.7475368 0.6264771 0.5024632 0.6087388 0.002463161 0.3912611 0.2475368 0.3912611 0.002463161 0.6087389 0.2514771 0.3912611 0.4985229 0.3912611 0.251477 0.126477 0.7475368 0.126477 0.75 0.125 0.7475368 0.6087389 0.9985229 0.625 0.998523 0.6087389 1 0.126477 0.5024632 0.125 0.5024632 0.126477 0.5 0.6250001 0.2514771 0.6250001 0.2514771 0.6087389 0.25 0.3735229 0.7475368 0.375 0.7475368 0.3735229 0.75 0.6250001 0.751477 0.6250001 0.751477 0.6087389 0.75 0.373523 0.5024632 0.3735229 0.5 0.375 0.5024632 0.625 0.5024632 0.625 0.5024632 0.6087389 0.5 0.126477 0.7475368 0.125 0.5024632 0.126477 0.5024632 0.6087389 0 0.3912611 0.002463161 0.3912611 0 0.625 0.2475368 0.6087388 0.002463161 0.625 0.002463161 0.3912611 0.251477 0.6087388 0.2475368 0.6087389 0.2514771 0.126477 0.5024632 0.3735229 0.5 0.373523 0.5024632 0.625 0.498523 0.6087389 0.2514771 0.6250001 0.2514771 0.3912611 0.5024632 0.6087389 0.4985229 0.6087388 0.5024632 0.373523 0.5024632 0.3912611 0.7475368 0.3735229 0.7475368 0.6264771 0.7475368 0.6087388 0.5024632 0.6264771 0.5024632 0.3912611 0.7514771 0.6087388 0.7475368 0.6087389 0.7514771 0.3735229 0.7475368 0.126477 0.75 0.126477 0.7475368 0.625 0.998523 0.6087389 0.7514771 0.6250001 0.751477 0.373523 0.5024632 0.126477 0.7475368 0.126477 0.5024632 0.5402114 0.7721217 0.4597886 0.9778783 0.4597886 0.7721218 0.5402115 0.5072606 0.4597885 0.7427394 0.4597886 0.5072605 0.8528783 0.5072606 0.6471217 0.7427395 0.6471217 0.5072606 0.5402115 0.007260501 0.4597885 0.2427394 0.4597886 0.007260501 0.5402114 0.2721217 0.4597886 0.4778783 0.4597886 0.2721217 0.1471217 0.7427395 0.1471217 0.75 0.125 0.7427394 0.5402114 0.9778782 0.625 0.9778783 0.5402114 1 0.1471217 0.5072606 0.125 0.5072606 0.1471217 0.5 0.625 0.2721217 0.625 0.2721217 0.5402115 0.25 0.3528783 0.7427395 0.375 0.7427394 0.3528783 0.75 0.625 0.7721217 0.625 0.7721217 0.5402115 0.75 0.3528783 0.5072606 0.3528783 0.5 0.375 0.5072606 0.625 0.5072605 0.625 0.5072605 0.5402115 0.5 0.1471217 0.7427395 0.125 0.5072606 0.1471217 0.5072606 0.5402115 0 0.4597886 0.007260501 0.4597885 0 0.625 0.2427394 0.5402115 0.007260501 0.625 0.007260501 0.4597886 0.2721217 0.5402115 0.2427394 0.5402114 0.2721217 0.1471217 0.5072606 0.3528783 0.5 0.3528783 0.5072606 0.625 0.4778783 0.5402114 0.2721217 0.625 0.2721217 0.4597886 0.5072605 0.5402114 0.4778783 0.5402115 0.5072606 0.3528783 0.5072606 0.4597885 0.7427394 0.3528783 0.7427395 0.6471217 0.7427395 0.5402115 0.5072606 0.6471217 0.5072606 0.4597886 0.7721218 0.5402115 0.7427394 0.5402114 0.7721217 0.3528783 0.7427395 0.1471217 0.75 0.1471217 0.7427395 0.625 0.9778783 0.5402114 0.7721217 0.625 0.7721217 0.3528783 0.5072606 0.1471217 0.7427395 0.1471217 0.5072606 0.625 0 0.625 0.25 0.375 0.25 0.375 0.4875 0.625 0.4875 0.625 0.5 0.625 0.5 0.625 0.75 0.375 0.75 0.625 0.9902316 0.625 1 0.375 1 0.3625 0.5 0.375 0.5 0.375 0.75 0.625 0 0.625 0 0.625 0.25 0.625 0.5 0.625 0.5 0.625 0.75 0.3625 0.5 0.3625 0.75 0.1347684 0.75 0.375 0.75 0.625 0.75 0.625 0.7625 0.625 0.2597684 0.625 0.4875 0.375 0.4875 0.625 0.5 0.6375 0.5 0.6375 0.75 0.625 0.75 0.625 0.75 0.625 0.7625 0.625 0.4875 0.625 0.4875 0.625 0.5 0.6375 0.75 0.6375 0.75 0.6375 0.5 0.875 0.5 0.875 0.75 0.625 0.75 0.625 0.75 0.625 1 0.375 1 0.625 0 0.625 0.25 0.375 0.25 0.375 0.5 0.375 0.75 0.125 0.75 0.625 0.5 0.625 0.75 0.375 0.75 0.625 0.25 0.625 0.5 0.375 0.5 0.625 0.75 0.875 0.75 0.875 0.5 0.375 1 0.625 1 0.625 0.75 0.375 0.25 0.625 0.25 0.625 0 0.125 0.75 0.375 0.75 0.375 0.5 0.375 0.75 0.625 0.75 0.625 0.5 0.375 0.5 0.625 0.5 0.625 0.25 0.625 0.75 0.875 0.75 0.875 0.5 0.375 1 0.625 1 0.625 0.75 0.375 0.25 0.625 0.25 0.625 0 0.125 0.75 0.375 0.75 0.375 0.5 0.375 0.75 0.625 0.75 0.625 0.5 0.375 0.5 0.625 0.5 0.625 0.25 0.875 0.5 0.875 0.75 0.625 0.75 0.625 0.75 0.625 1 0.375 1 0.625 0 0.625 0.25 0.375 0.25 0.375 0.5 0.375 0.75 0.125 0.75 0.625 0.5 0.625 0.75 0.375 0.75 0.625 0.25 0.625 0.5 0.375 0.5 0.625 0.25 0.625 0.2597684 0.375 0.2597684 0.1347684 0.5 0.1347684 0.75 0.125 0.75 0.8652316 0.5 0.8652316 0.75 0.6375 0.75 0.625 0.7625 0.625 0.9902316 0.375 0.9902316 0.875 0.5 0.875 0.75 0.8652316 0.75 0.625 0.9902316 0.625 0.9902316 0.625 1 0.8652316 0.5 0.8652316 0.5 0.8652316 0.75 0.625 0.25 0.625 0.25 0.625 0.2597684 0.6087389 0.7514771 0.6087389 0.9985229 0.3912611 0.9985229 0.6087388 0.5024632 0.6087388 0.7475368 0.3912611 0.7475368 0.873523 0.5024632 0.8735229 0.7475368 0.6264771 0.7475368 0.6087388 0.002463161 0.6087388 0.2475368 0.3912611 0.2475368 0.6087389 0.2514771 0.6087389 0.4985229 0.3912611 0.4985229 0.126477 0.7475368 0.125 0.7475368 0.125 0.5024632 0.6087389 0 0.6087388 0.002463161 0.3912611 0.002463161 0.625 0.2475368 0.6087388 0.2475368 0.6087388 0.002463161 0.3912611 0.251477 0.3912611 0.2475368 0.6087388 0.2475368 0.126477 0.5024632 0.126477 0.5 0.3735229 0.5 0.625 0.498523 0.6087389 0.4985229 0.6087389 0.2514771 0.3912611 0.5024632 0.3912611 0.4985229 0.6087389 0.4985229 0.373523 0.5024632 0.3912611 0.5024632 0.3912611 0.7475368 0.6264771 0.7475368 0.6087388 0.7475368 0.6087388 0.5024632 0.3912611 0.7514771 0.3912611 0.7475368 0.6087388 0.7475368 0.3735229 0.7475368 0.3735229 0.75 0.126477 0.75 0.625 0.998523 0.6087389 0.9985229 0.6087389 0.7514771 0.373523 0.5024632 0.3735229 0.7475368 0.126477 0.7475368 0.5402114 0.7721217 0.5402114 0.9778782 0.4597886 0.9778783 0.5402115 0.5072606 0.5402115 0.7427394 0.4597885 0.7427394 0.8528783 0.5072606 0.8528783 0.7427395 0.6471217 0.7427395 0.5402115 0.007260501 0.5402115 0.2427394 0.4597885 0.2427394 0.5402114 0.2721217 0.5402114 0.4778783 0.4597886 0.4778783 0.1471217 0.7427395 0.125 0.7427394 0.125 0.5072606 0.5402115 0 0.5402115 0.007260501 0.4597886 0.007260501 0.625 0.2427394 0.5402115 0.2427394 0.5402115 0.007260501 0.4597886 0.2721217 0.4597885 0.2427394 0.5402115 0.2427394 0.1471217 0.5072606 0.1471217 0.5 0.3528783 0.5 0.625 0.4778783 0.5402114 0.4778783 0.5402114 0.2721217 0.4597886 0.5072605 0.4597886 0.4778783 0.5402114 0.4778783 0.3528783 0.5072606 0.4597886 0.5072605 0.4597885 0.7427394 0.6471217 0.7427395 0.5402115 0.7427394 0.5402115 0.5072606 0.4597886 0.7721218 0.4597885 0.7427394 0.5402115 0.7427394 0.3528783 0.7427395 0.3528783 0.75 0.1471217 0.75 0.625 0.9778783 0.5402114 0.9778782 0.5402114 0.7721217 0.3528783 0.5072606 0.3528783 0.7427395 0.1471217 0.7427395</float_array>
          <technique_common>
            <accessor source="#Cube_001-mesh-map-0-array" count="540" stride="2">
              <param name="S" type="float"/>
              <param name="T" type="float"/>
            </accessor>
          </technique_common>
        </source>
        <vertices id="Cube_001-mesh-vertices">
          <input semantic="POSITION" source="#Cube_001-mesh-positions"/>
        </vertices>
        <triangles material="Wood-material" count="92">
          <input semantic="VERTEX" source="#Cube_001-mesh-vertices" offset="0"/>
          <input semantic="NORMAL" source="#Cube_001-mesh-normals" offset="1"/>
          <input semantic="TEXCOORD" source="#Cube_001-mesh-map-0" offset="2" set="0"/>
          <p>1 0 0 2 0 1 0 0 2 8 1 3 7 1 4 6 1 5 7 2 6 4 2 7 6 2 8 49 3 9 0 3 10 51 3 11 8 4 12 4 4 13 10 4 14 1 0 15 53 0 16 3 0 17 7 2 18 14 2 19 5 2 20 8 4 21 51 4 22 48 4 23 4 5 24 11 5 25 10 5 26 50 1 27 8 1 28 48 1 29 13 6 30 15 6 31 14 6 32 5 3 33 15 3 34 11 3 35 9 1 36 13 1 37 7 1 38 11 7 39 12 7 40 9 7 41 20 6 42 18 6 43 16 6 44 18 3 45 23 3 46 19 3 47 22 0 48 21 0 49 23 0 50 17 4 51 23 4 52 21 4 53 16 2 54 19 2 55 17 2 56 20 1 57 17 1 58 21 1 59 26 6 60 28 6 61 24 6 62 31 3 63 26 3 64 27 3 65 29 2 66 30 2 67 31 2 68 31 4 69 25 4 70 29 4 71 27 0 72 24 0 73 25 0 74 25 1 75 28 1 76 29 1 77 34 6 78 36 6 79 32 6 80 39 1 81 34 1 82 35 1 83 37 0 84 38 0 85 39 0 86 39 4 87 33 4 88 37 4 89 35 2 90 32 2 91 33 2 92 33 3 93 36 3 94 37 3 95 44 6 96 42 6 97 40 6 98 42 1 99 47 1 100 43 1 101 46 2 102 45 2 103 47 2 104 41 4 105 47 4 106 45 4 107 40 0 108 43 0 109 41 0 110 44 3 111 41 3 112 45 3 113 3 1 114 48 1 115 2 1 116 48 4 117 0 4 118 2 4 119 50 6 120 11 6 121 9 6 122 11 8 123 51 8 124 10 8 125 53 6 126 54 6 127 55 6 128 49 3 129 52 3 130 1 3 131 50 2 132 54 2 133 49 2 134 3 1 135 55 1 136 50 1 137 1 0 294 3 0 295 2 0 296 8 49 297 9 49 298 7 49 299 7 2 300 5 2 301 4 2 302 49 3 303 1 3 304 0 3 305 8 4 306 6 4 307 4 4 308 1 0 309 52 0 310 53 0 311 7 2 312 13 2 313 14 2 314 8 4 315 10 4 316 51 4 317 4 3 318 5 3 319 11 3 320 50 50 321 9 50 322 8 50 323 13 6 324 12 6 325 15 6 326 5 3 327 14 3 328 15 3 329 9 1 330 12 1 331 13 1 332 11 0 333 15 0 334 12 0 335 20 6 336 22 6 337 18 6 338 18 3 339 22 3 340 23 3 341 22 0 342 20 0 343 21 0 344 17 4 345 19 4 346 23 4 347 16 2 348 18 2 349 19 2 350 20 1 351 16 1 352 17 1 353 26 6 354 30 6 355 28 6 356 31 3 357 30 3 358 26 3 359 29 2 360 28 2 361 30 2 362 31 4 363 27 4 364 25 4 365 27 0 366 26 0 367 24 0 368 25 1 369 24 1 370 28 1 371 34 6 372 38 6 373 36 6 374 39 1 375 38 1 376 34 1 377 37 0 378 36 0 379 38 0 380 39 4 381 35 4 382 33 4 383 35 2 384 34 2 385 32 2 386 33 3 387 32 3 388 36 3 389 44 6 390 46 6 391 42 6 392 42 1 393 46 1 394 47 1 395 46 2 396 44 2 397 45 2 398 41 4 399 43 4 400 47 4 401 40 0 402 42 0 403 43 0 404 44 3 405 40 3 406 41 3 407 3 1 408 50 1 409 48 1 410 48 4 411 51 4 412 0 4 413 50 6 414 49 6 415 11 6 416 11 3 417 49 3 418 51 3 419 53 6 420 52 6 421 54 6 422 49 3 423 54 3 424 52 3 425 50 2 426 55 2 427 54 2 428 3 1 429 53 1 430 55 1 431</p>
        </triangles>
        <triangles material="Matress_Covers-material" count="44">
          <input semantic="VERTEX" source="#Cube_001-mesh-vertices" offset="0"/>
          <input semantic="NORMAL" source="#Cube_001-mesh-normals" offset="1"/>
          <input semantic="TEXCOORD" source="#Cube_001-mesh-map-0" offset="2" set="0"/>
          <p>72 3 138 57 3 139 70 3 140 78 2 141 69 2 142 76 2 143 65 6 144 71 6 145 77 6 146 61 0 147 63 0 148 58 0 149 66 1 150 75 1 151 64 1 152 56 9 153 57 9 154 58 9 155 59 10 156 60 10 157 61 10 158 62 11 159 63 11 160 64 11 161 65 12 162 66 12 163 67 12 164 68 13 165 69 13 166 70 13 167 71 14 168 72 14 169 73 14 170 74 15 171 75 15 172 76 15 173 77 16 174 78 16 175 79 16 176 56 17 177 63 17 178 62 17 179 59 18 180 58 18 181 57 18 182 65 19 183 61 19 184 60 19 185 64 20 186 67 20 187 66 20 188 62 21 189 75 21 190 74 21 191 77 22 192 66 22 193 65 22 194 76 23 195 79 23 196 78 23 197 74 24 198 69 24 199 68 24 200 71 25 201 78 25 202 77 25 203 70 26 204 73 26 205 72 26 206 68 27 207 57 27 208 56 27 209 60 28 210 72 28 211 71 28 212 74 4 213 56 4 214 62 4 215 72 3 432 59 3 433 57 3 434 78 2 435 73 2 436 69 2 437 65 6 438 60 6 439 71 6 440 61 0 441 67 0 442 63 0 443 66 1 444 79 1 445 75 1 446 56 17 447 58 17 448 63 17 449 59 51 450 61 51 451 58 51 452 65 52 453 67 52 454 61 52 455 64 53 456 63 53 457 67 53 458 62 21 459 64 21 460 75 21 461 77 22 462 79 22 463 66 22 464 76 54 465 75 54 466 79 54 467 74 24 468 76 24 469 69 24 470 71 55 471 73 55 472 78 55 473 70 56 474 69 56 475 73 56 476 68 27 477 70 27 478 57 27 479 60 28 480 59 28 481 72 28 482 74 4 483 68 4 484 56 4 485</p>
        </triangles>
        <triangles material="Pillow-material" count="44">
          <input semantic="VERTEX" source="#Cube_001-mesh-vertices" offset="0"/>
          <input semantic="NORMAL" source="#Cube_001-mesh-normals" offset="1"/>
          <input semantic="TEXCOORD" source="#Cube_001-mesh-map-0" offset="2" set="0"/>
          <p>96 3 216 81 3 217 94 3 218 102 2 219 93 2 220 100 2 221 89 6 222 95 6 223 101 6 224 85 0 225 87 0 226 82 0 227 90 1 228 99 1 229 88 1 230 80 29 231 81 29 232 82 29 233 83 30 234 84 30 235 85 30 236 86 31 237 87 31 238 88 31 239 89 32 240 90 32 241 91 32 242 92 33 243 93 33 244 94 33 245 95 34 246 96 34 247 97 34 248 98 35 249 99 35 250 100 35 251 101 36 252 102 36 253 103 36 254 80 37 255 87 37 256 86 37 257 83 38 258 82 38 259 81 38 260 89 39 261 85 39 262 84 39 263 88 40 264 91 40 265 90 40 266 86 41 267 99 41 268 98 41 269 101 42 270 90 42 271 89 42 272 100 43 273 103 43 274 102 43 275 98 44 276 93 44 277 92 44 278 95 45 279 102 45 280 101 45 281 94 46 282 97 46 283 96 46 284 92 47 285 81 47 286 80 47 287 84 48 288 96 48 289 95 48 290 98 4 291 80 4 292 86 4 293 96 3 486 83 3 487 81 3 488 102 2 489 97 2 490 93 2 491 89 6 492 84 6 493 95 6 494 85 0 495 91 0 496 87 0 497 90 1 498 103 1 499 99 1 500 80 57 501 82 57 502 87 57 503 83 58 504 85 58 505 82 58 506 89 59 507 91 59 508 85 59 509 88 60 510 87 60 511 91 60 512 86 61 513 88 61 514 99 61 515 101 62 516 103 62 517 90 62 518 100 63 519 99 63 520 103 63 521 98 64 522 100 64 523 93 64 524 95 65 525 97 65 526 102 65 527 94 66 528 93 66 529 97 66 530 92 67 531 94 67 532 81 67 533 84 68 534 83 68 535 96 68 536 98 4 537 92 4 538 80 4 539</p>
        </triangles>
      </mesh>
    </geometry>
  </library_geometries>
  <library_visual_scenes>
    <visual_scene id="Scene" name="Scene">
      <node id="Bed-colonly" name="Bed-colonly" type="NODE">
        <matrix sid="transform">1 0 0 0 0 1 0 0 0 0 1 0 0 0 0 1</matrix>
        <instance_geometry url="#Cube_004-mesh" name="Bed-colonly">
          <bind_material>
            <technique_common>
              <instance_material symbol="Wood-material" target="#Wood-material">
                <bind_vertex_input semantic="UVMap" input_semantic="TEXCOORD" input_set="0"/>
              </instance_material>
              <instance_material symbol="Matress_Covers-material" target="#Matress_Covers-material">
                <bind_vertex_input semantic="UVMap" input_semantic="TEXCOORD" input_set="0"/>
              </instance_material>
              <instance_material symbol="Pillow-material" target="#Pillow-material">
                <bind_vertex_input semantic="UVMap" input_semantic="TEXCOORD" input_set="0"/>
              </instance_material>
            </technique_common>
          </bind_material>
        </instance_geometry>
      </node>
      <node id="Bed" name="Bed" type="NODE">
        <matrix sid="transform">1 0 0 0 0 1 0 0 0 0 1 0 0 0 0 1</matrix>
        <instance_geometry url="#Cube_001-mesh" name="Bed">
          <bind_material>
            <technique_common>
              <instance_material symbol="Wood-material" target="#Wood-material">
                <bind_vertex_input semantic="UVMap" input_semantic="TEXCOORD" input_set="0"/>
              </instance_material>
              <instance_material symbol="Matress_Covers-material" target="#Matress_Covers-material">
                <bind_vertex_input semantic="UVMap" input_semantic="TEXCOORD" input_set="0"/>
              </instance_material>
              <instance_material symbol="Pillow-material" target="#Pillow-material">
                <bind_vertex_input semantic="UVMap" input_semantic="TEXCOORD" input_set="0"/>
              </instance_material>
            </technique_common>
          </bind_material>
        </instance_geometry>
      </node>
    </visual_scene>
  </library_visual_scenes>
  <scene>
    <instance_visual_scene url="#Scene"/>
  </scene>
</COLLADA>