<?xml version="1.0" encoding="utf-8"?>
<COLLADA xmlns="http://www.collada.org/2005/11/COLLADASchema" version="1.4.1" xmlns:xsi="http://www.w3.org/2001/XMLSchema-instance">
  <asset>
    <contributor>
      <author>Blender User</author>
      <authoring_tool>Blender 2.91.0 commit date:1970-01-01, commit time:00:00, hash:unknown</authoring_tool>
    </contributor>
    <created>2021-02-23T19:49:52</created>
    <modified>2021-02-23T19:49:52</modified>
    <unit name="meter" meter="1"/>
    <up_axis>Z_UP</up_axis>
  </asset>
  <library_effects>
    <effect id="Wall-effect">
      <profile_COMMON>
        <technique sid="common">
          <lambert>
            <emission>
              <color sid="emission">0 0 0 1</color>
            </emission>
            <diffuse>
              <color sid="diffuse">0.8000001 0.6320485 0.1214901 1</color>
            </diffuse>
            <index_of_refraction>
              <float sid="ior">1.45</float>
            </index_of_refraction>
          </lambert>
        </technique>
      </profile_COMMON>
    </effect>
    <effect id="Door_handle-effect">
      <profile_COMMON>
        <technique sid="common">
          <lambert>
            <emission>
              <color sid="emission">0 0 0 1</color>
            </emission>
            <diffuse>
              <color sid="diffuse">0.8 0.8 0.8 1</color>
            </diffuse>
            <reflectivity>
              <float sid="specular">0.6737589</float>
            </reflectivity>
            <index_of_refraction>
              <float sid="ior">1.45</float>
            </index_of_refraction>
          </lambert>
        </technique>
      </profile_COMMON>
    </effect>
    <effect id="Door_frame-effect">
      <profile_COMMON>
        <technique sid="common">
          <lambert>
            <emission>
              <color sid="emission">0 0 0 1</color>
            </emission>
            <diffuse>
              <color sid="diffuse">1 1 1 1</color>
            </diffuse>
            <reflectivity>
              <float sid="specular">0.6382979</float>
            </reflectivity>
            <index_of_refraction>
              <float sid="ior">1.45</float>
            </index_of_refraction>
          </lambert>
        </technique>
      </profile_COMMON>
    </effect>
    <effect id="Door_glass-effect">
      <profile_COMMON>
        <technique sid="common">
          <lambert>
            <emission>
              <color sid="emission">0 0 0 1</color>
            </emission>
            <diffuse>
              <color sid="diffuse">0.8 0.8 0.8 1</color>
            </diffuse>
            <reflectivity>
              <float sid="specular">0.5</float>
            </reflectivity>
          </lambert>
        </technique>
      </profile_COMMON>
    </effect>
  </library_effects>
  <library_images/>
  <library_materials>
    <material id="Wall-material" name="Wall">
      <instance_effect url="#Wall-effect"/>
    </material>
    <material id="Door_handle-material" name="Door handle">
      <instance_effect url="#Door_handle-effect"/>
    </material>
    <material id="Door_frame-material" name="Door frame">
      <instance_effect url="#Door_frame-effect"/>
    </material>
    <material id="Door_glass-material" name="Door glass">
      <instance_effect url="#Door_glass-effect"/>
    </material>
  </library_materials>
  <library_geometries>
    <geometry id="Cube-mesh" name="Cube">
      <mesh>
        <source id="Cube-mesh-positions">
          <float_array id="Cube-mesh-positions-array" count="1020">0.6431103 0.09999996 2.514868 0.6431103 0.09999996 0.1398427 0.6431103 -0.1 2.514868 0.6431103 -0.1 0.1398427 -0.6431103 0.09999996 2.514868 -0.6431103 0.09999996 0.1398427 -0.6431103 -0.1 2.514868 -0.6431103 -0.1 0.1398427 0 0.09999996 0.1398427 0.6431103 0.09999996 1.327355 -0.6431103 -0.1 1.327355 0.6431103 -0.1 1.327355 -0.6431103 0.09999996 1.327355 0 -0.1 2.514868 0 -0.1 0.1398427 0 0.09999996 2.514868 0 0.09999996 8.09431e-5 -0.7800001 0.09999996 8.09431e-5 0.7800001 0.09999996 1.327355 0.7800001 0.09999996 8.09431e-5 -0.7800001 -0.1 1.327355 -0.7800001 -0.1 2.65463 0.7800001 -0.1 1.327355 0.7800001 -0.1 8.09431e-5 -0.7800001 0.09999996 1.327355 0 -0.1 2.65463 0 -0.1 8.09431e-5 0 0.09999996 2.65463 0.7800001 0.09999996 2.65463 -0.7800001 -0.1 8.09431e-5 0.7800001 -0.1 2.65463 -0.7800001 0.09999996 2.65463 0 0.03520083 1.379029 0 0.03520083 1.275681 0.5924981 0.03520083 1.379029 0.6431103 0.07413327 1.327355 0.5924981 0.03520083 1.275681 -0.5924981 0.03520083 1.379029 -0.5924981 0.03520083 1.275681 -0.6431103 0.07413327 1.327355 0 -0.03520089 1.379029 0 -0.03520089 1.275681 -0.5924981 -0.03520089 1.275681 -0.5924981 -0.03520089 1.379029 -0.6431103 -0.07413333 1.327355 0.5924981 -0.03520089 1.379029 0.5924981 -0.03520089 1.275681 0.6431103 -0.07413333 1.327355 0 0.03520083 0.1915167 0 0.07413327 0.1398427 -0.6431103 0.07413327 0.1398427 -0.5924981 0.03520083 0.1915167 0.6431103 0.07413327 0.1398427 0.5924981 0.03520083 0.1915167 -0.5924981 -0.03520089 2.463194 -0.6431103 -0.07413333 2.514868 0.5924981 -0.03520089 0.1915167 0.6431103 -0.07413333 0.1398427 0 -0.03520089 2.463194 0 -0.07413333 2.514868 0 -0.03520089 0.1915167 0 -0.07413333 0.1398427 0 0.03520083 2.463194 0 0.07413327 2.514868 0.6431103 0.07413327 2.514868 0.5924981 0.03520083 2.463194 -0.5924981 -0.03520089 0.1915167 -0.6431103 -0.07413333 0.1398427 0.6431103 -0.07413333 2.514868 0.5924981 -0.03520089 2.463194 -0.6431103 0.07413327 2.514868 -0.5924981 0.03520083 2.463194 0.5924981 0.05147975 1.275681 0.5924981 0.05147975 1.379029 0.6431103 0.09041219 1.327355 -0.6431103 0.09041219 1.327355 -0.5924981 0.05147975 1.379029 -0.5924981 0.05147975 1.275681 -0.6431103 -0.09041225 1.327355 -0.5924981 -0.05147987 1.275681 -0.5924981 -0.05147987 1.379029 0.6431103 -0.09041225 1.327355 0.5924981 -0.05147987 1.379029 0.5924981 -0.05147987 1.275681 0 0.05147975 1.275681 0 0.05147975 1.379029 0 -0.05147987 1.275681 0 -0.05147987 1.379029 0 0.05147975 0.1915167 0 0.09041219 0.1398427 -0.6431103 0.09041219 0.1398427 -0.5924981 0.05147975 0.1915167 0.6431103 0.09041219 0.1398427 0.5924981 0.05147975 0.1915167 -0.5924981 -0.05147987 2.463194 -0.6431103 -0.09041225 2.514868 0.5924981 -0.05147987 0.1915167 0.6431103 -0.09041225 0.1398427 0 -0.05147987 2.463194 0 -0.09041225 2.514868 0 -0.05147987 0.1915167 0 -0.09041225 0.1398427 0 0.05147975 2.463194 0 0.09041219 2.514868 0.6431103 0.09041219 2.514868 0.5924981 0.05147975 2.463194 -0.6431103 -0.09041225 0.1398427 -0.5924981 -0.05147987 0.1915167 0.6431103 -0.09041225 2.514868 0.5924981 -0.05147987 2.463194 -0.6431103 0.09041219 2.514868 -0.5924981 0.05147975 2.463194 0.4208882 0.004323542 1.274733 0.411378 0.004323542 1.275689 0.4208882 0.1405749 1.274733 0.4303984 0.004323542 1.275689 0.4395431 0.004323542 1.278521 0.4303984 0.1405749 1.275689 0.4395431 0.1405749 1.278521 0.4303984 0.158037 1.275689 0.4395431 0.158037 1.278521 0.4208882 0.158037 1.274733 0.411378 0.158037 1.275689 0.4022332 0.158037 1.278521 0.411378 0.1405749 1.275689 0.4022332 0.1405749 1.278521 0.4022332 0.004323542 1.278521 0.3938053 0.1405749 1.28312 0.3938053 0.004323542 1.28312 0.3864183 0.1405749 1.28931 0.3938053 0.158037 1.28312 0.3864183 0.158037 1.28931 0.3803558 0.158037 1.296852 0.07273977 0.158037 1.28931 0.06667733 0.158037 1.296852 0.07273977 0.1405749 1.28931 0.06667733 0.1405749 1.296852 0.3803558 0.1405749 1.296852 0.06217259 0.1405749 1.305457 0.375851 0.1405749 1.305457 0.05939853 0.1405749 1.314793 0.06217259 0.158037 1.305457 0.05939853 0.158037 1.314793 0.375851 0.158037 1.305457 0.373077 0.158037 1.314793 0.3721404 0.158037 1.324503 0.373077 0.158037 1.334213 0.05846184 0.158037 1.324503 0.05939853 0.158037 1.334213 0.05846184 0.1405749 1.324503 0.05939853 0.1405749 1.334213 0.3721404 0.1405749 1.324503 0.373077 0.1405749 1.314793 0.3721404 0.004323542 1.324503 0.373077 0.1405749 1.334213 0.373077 0.004323542 1.334213 0.375851 0.1405749 1.343549 0.375851 0.004323542 1.343549 0.3803558 0.1405749 1.352154 0.06217259 0.1405749 1.343549 0.06667733 0.1405749 1.352154 0.06217259 0.158037 1.343549 0.375851 0.158037 1.343549 0.06667733 0.158037 1.352154 0.3803558 0.158037 1.352154 0.07273977 0.158037 1.359696 0.07273977 0.1405749 1.359696 0.3864183 0.158037 1.359696 0.3938053 0.158037 1.365886 0.3864183 0.1405749 1.359696 0.3864183 0.004323542 1.359696 0.3938053 0.1405749 1.365886 0.3938053 0.004323542 1.365886 0.4022333 0.1405749 1.370485 0.4022333 0.004323542 1.370485 0.411378 0.1405749 1.373317 0.4022333 0.158037 1.370485 0.411378 0.158037 1.373317 0.4208883 0.158037 1.374274 0.4303985 0.158037 1.373317 0.4208883 0.1405749 1.374274 0.4208883 0.004323542 1.374274 0.4303985 0.1405749 1.373317 0.4303985 0.004323542 1.373317 0.4395433 0.1405749 1.370485 0.4395433 0.004323542 1.370485 0.4479711 0.1405749 1.365886 0.4395433 0.158037 1.370485 0.4479711 0.158037 1.365886 0.4553582 0.158037 1.359696 0.4614207 0.158037 1.352154 0.4553582 0.1405749 1.359696 0.4553582 0.004323542 1.359696 0.4614207 0.1405749 1.352154 0.4614207 0.004323542 1.352154 0.4659254 0.1405749 1.343549 0.4659254 0.004323542 1.343549 0.4686995 0.1405749 1.334213 0.4659254 0.158037 1.343549 0.4686995 0.158037 1.334213 0.4696361 0.158037 1.324503 0.4686995 0.158037 1.314793 0.4696361 0.1405749 1.324503 0.4696361 0.004323542 1.324503 0.4686995 0.1405749 1.314793 0.4686995 0.004323542 1.314793 0.4659254 0.1405749 1.305457 0.4659254 0.004323542 1.305457 0.4614205 0.1405749 1.296852 0.4659254 0.158037 1.305457 0.4614205 0.158037 1.296852 0.4553582 0.158037 1.28931 0.4479711 0.158037 1.28312 0.4553582 0.1405749 1.28931 0.4553582 0.004323542 1.28931 0.4479711 0.1405749 1.28312 0.4479711 0.004323542 1.28312 0.4614205 0.004323542 1.296852 0.4686995 0.004323542 1.334213 0.4479711 0.004323542 1.365886 0.411378 0.004323542 1.373317 0.3803558 0.004323542 1.352154 0.373077 0.004323542 1.314793 0.375851 0.004323542 1.305457 0.3803558 0.004323542 1.296852 0.3864183 0.004323542 1.28931 0.4208882 -0.004323601 1.274733 0.411378 -0.004323601 1.275689 0.4208882 -0.140575 1.274733 0.4303984 -0.004323601 1.275689 0.4395431 -0.004323601 1.278521 0.4303984 -0.140575 1.275689 0.4395431 -0.140575 1.278521 0.4303984 -0.1580371 1.275689 0.4395431 -0.1580371 1.278521 0.4208882 -0.1580371 1.274733 0.411378 -0.1580371 1.275689 0.4022332 -0.1580371 1.278521 0.411378 -0.1405749 1.275689 0.4022332 -0.1405749 1.278521 0.4022332 -0.004323601 1.278521 0.3938053 -0.140575 1.28312 0.3938053 -0.004323601 1.28312 0.3864182 -0.140575 1.28931 0.3938053 -0.1580371 1.28312 0.3864182 -0.1580371 1.28931 0.3803558 -0.1580371 1.296852 0.07273977 -0.1580371 1.28931 0.06667733 -0.1580371 1.296852 0.07273977 -0.140575 1.28931 0.06667733 -0.140575 1.296852 0.3803558 -0.140575 1.296852 0.06217259 -0.140575 1.305457 0.375851 -0.140575 1.305457 0.05939853 -0.140575 1.314793 0.06217259 -0.1580371 1.305457 0.05939853 -0.1580371 1.314793 0.375851 -0.1580371 1.305457 0.373077 -0.1580371 1.314793 0.3721404 -0.1580371 1.324503 0.373077 -0.1580371 1.334213 0.05846184 -0.1580371 1.324503 0.05939853 -0.1580371 1.334213 0.05846184 -0.140575 1.324503 0.05939853 -0.1405749 1.334213 0.3721404 -0.140575 1.324503 0.373077 -0.140575 1.314793 0.3721404 -0.004323601 1.324503 0.373077 -0.1405749 1.334213 0.373077 -0.004323601 1.334213 0.375851 -0.140575 1.343549 0.375851 -0.004323601 1.343549 0.3803558 -0.140575 1.352154 0.06217259 -0.140575 1.343549 0.06667733 -0.140575 1.352154 0.06217259 -0.1580371 1.343549 0.375851 -0.1580371 1.343549 0.06667733 -0.1580371 1.352154 0.3803558 -0.1580371 1.352154 0.07273977 -0.1580371 1.359696 0.07273977 -0.1405749 1.359696 0.3864182 -0.1580371 1.359696 0.3938053 -0.1580371 1.365886 0.3864182 -0.1405749 1.359696 0.3864182 -0.004323601 1.359696 0.3938053 -0.1405749 1.365886 0.3938053 -0.004323601 1.365886 0.4022333 -0.1405749 1.370485 0.4022333 -0.004323601 1.370485 0.411378 -0.1405749 1.373317 0.4022333 -0.1580371 1.370485 0.411378 -0.1580371 1.373317 0.4208883 -0.1580371 1.374274 0.4303985 -0.1580371 1.373317 0.4208883 -0.1405749 1.374274 0.4208883 -0.004323601 1.374274 0.4303985 -0.1405749 1.373317 0.4303985 -0.004323601 1.373317 0.4395433 -0.1405749 1.370485 0.4395433 -0.004323601 1.370485 0.4479711 -0.1405749 1.365886 0.4395433 -0.1580371 1.370485 0.4479711 -0.1580371 1.365886 0.4553582 -0.1580371 1.359696 0.4614207 -0.1580371 1.352154 0.4553582 -0.1405749 1.359696 0.4553582 -0.004323601 1.359696 0.4614207 -0.140575 1.352154 0.4614207 -0.004323601 1.352154 0.4659254 -0.140575 1.343549 0.4659254 -0.004323601 1.343549 0.4686995 -0.140575 1.334213 0.4659254 -0.1580371 1.343549 0.4686995 -0.1580371 1.334213 0.4696361 -0.1580371 1.324503 0.4686995 -0.1580371 1.314793 0.4696361 -0.140575 1.324503 0.4696361 -0.004323601 1.324503 0.4686995 -0.1405749 1.314793 0.4686995 -0.004323601 1.314793 0.4659253 -0.140575 1.305457 0.4659253 -0.004323601 1.305457 0.4614205 -0.140575 1.296852 0.4659253 -0.1580371 1.305457 0.4614205 -0.1580371 1.296852 0.4553582 -0.1580371 1.28931 0.4479711 -0.1580371 1.28312 0.4553582 -0.1405749 1.28931 0.4553582 -0.004323601 1.28931 0.4479711 -0.1405749 1.28312 0.4479711 -0.004323601 1.28312 0.4614205 -0.004323601 1.296852 0.4686995 -0.004323601 1.334213 0.4479711 -0.004323601 1.365886 0.411378 -0.004323601 1.373317 0.3803558 -0.004323601 1.352154 0.373077 -0.004323601 1.314793 0.375851 -0.004323601 1.305457 0.3803558 -0.004323601 1.296852 0.3864182 -0.004323601 1.28931</float_array>
          <technique_common>
            <accessor source="#Cube-mesh-positions-array" count="340" stride="3">
              <param name="X" type="float"/>
              <param name="Y" type="float"/>
              <param name="Z" type="float"/>
            </accessor>
          </technique_common>
        </source>
        <source id="Cube-mesh-normals">
          <float_array id="Cube-mesh-normals-array" count="1092">0 0 1 1 0 0 -1 0 0 0 0 -1 0 1 0 0 -1 0 -0.6097109 0.792624 0 -0.6097108 -0.792624 0 0 -0.7986861 -0.6017479 0 0.7986856 0.6017488 0.6097109 0.7926239 0 0.6097107 -0.792624 0 0 -0.7986854 0.6017488 0 0.7986862 -0.6017478 0.1000494 0 0.9949825 -0.1000497 0 0.9949826 -0.2958366 0 0.9552386 -0.2958486 0 0.9552349 -0.1000464 0 0.9949828 0.1000592 0 0.9949815 0.2958478 0 0.9552352 0.2958357 0 0.9552389 0.4790476 0 0.877789 0.4790356 0 0.8777955 0.6422632 0 0.7664842 0.6422428 0 0.7665013 0.7794155 0 0.6265075 0 1 7.87332e-7 0 1 -4.74438e-7 0.8859362 0 0.4638074 0 1 2.14653e-6 0.958585 0 0.2848068 0 -1 2.76036e-6 0 -1 -2.54403e-6 0 -1 -4.39553e-7 0.9953792 0 0.09602266 0.9953792 0 -0.09602284 0 1 3.8222e-7 0 1 -2.44621e-6 0.9953793 0 0.09602159 0.9953793 0 -0.09602159 0.9585838 0 -0.2848109 0 1 -2.54403e-6 0.8859388 0 -0.463802 0.9585832 0 -0.2848128 0.8859353 0 -0.463809 0 -1 -9.48875e-7 0 -1 -1.78877e-7 0 -1 -1.23019e-6 0.7794149 0 -0.6265083 0.6422428 0 -0.7665013 0.7794232 0 -0.6264978 0 1 -3.14928e-6 0.64225 0 -0.7664954 0.4790463 0 -0.8777897 0.4790339 0 -0.8777964 0.2958366 0 -0.9552386 0.295849 0 -0.9552348 0.1000589 0 -0.9949816 -0.1000368 0 -0.9949838 0.100049 0 -0.9949826 -0.100049 0 -0.9949826 -0.2958574 0 -0.9552322 -0.295849 0 -0.9552348 -0.47903 0 -0.8777985 -0.479035 0 -0.8777958 -0.6422545 0 -0.7664915 -0.7794152 0 -0.6265079 -0.6422351 0 -0.7665078 -0.7794232 0 -0.6264978 -0.8859341 0 -0.4638113 -0.8859401 0 -0.4638 -0.9585838 0 -0.2848109 -0.9585831 0 -0.2848131 -0.9953796 0 -0.0960192 -0.9953796 0 0.09601765 -0.9953796 0 -0.09601861 -0.9953796 0 0.09601855 -0.9585829 0 0.2848137 -0.9585841 0 0.2848099 -0.8859266 0 0.4638254 -0.8859281 0 0.4638229 -0.7794162 0 0.6265066 -0.6422395 0 0.7665041 -0.7794159 0 0.626507 -0.6422469 0 0.766498 -0.47903 0 0.8777985 -0.479027 0 0.8778003 0.958582 0 0.284817 0.8859341 0 0.4638113 0.7794054 0 0.6265199 0.1000395 0 0.9949836 0 -1 0 -0.1000493 0 0.9949825 -0.2958307 0 0.9552404 -0.295853 0 0.9552336 -0.1000593 0 0.9949815 0.1000506 0 0.9949824 0.47903 0 0.8777985 0.479035 0 0.8777958 0.642235 0 0.7665079 0.6422415 0 0.7665024 0 1 1.52543e-6 0.7794168 0 0.6265058 0 -1 -5.52073e-6 0.8859353 0 0.463809 0.958584 0 0.28481 0 1 4.9169e-6 0 1 -2.52416e-6 0 1 -3.82229e-7 0.995379 0 0.09602475 0.9953795 0 -0.09601998 0 -1 4.29987e-7 0.9953789 0 0.09602588 0.9953796 0 -0.09601879 0.958582 0 -0.284817 0 -1 -2.84216e-6 0.8859339 0 -0.4638113 0 -1 -2.15653e-7 0.958583 0 -0.2848134 0 1 -2.76036e-6 0.7794178 0 -0.6265046 0.6422415 0 -0.7665024 0.779419 0 -0.6265031 0 -1 7.8732e-7 0.6422484 0 -0.7664967 0.4790111 0 -0.8778089 0.4790173 0 -0.8778055 0.2958574 0 -0.9552322 0.2958694 0 -0.9552285 0.100059 0 -0.9949816 -0.1000369 0 -0.9949837 0.1000717 -1.74274e-6 -0.9949803 -0.1000717 0 -0.9949803 -0.2958574 -1.78499e-6 -0.9552322 -0.2958694 0 -0.9552285 -0.4790138 0 -0.8778074 -0.4790197 0 -0.8778042 -0.6422531 0 -0.7664927 -0.7794149 0 -0.6265083 -0.6422468 0 -0.7664979 -0.7794143 0 -0.6265089 -0.8859401 0 -0.4637998 -0.8859414 0 -0.4637972 -0.9585829 0 -0.2848137 -0.9585824 0 -0.2848156 -0.99538 0 -0.09601444 -0.9953796 0 0.09601855 -0.9953801 0 -0.09601342 -0.9953795 0 0.09601908 -0.9585803 0 0.2848227 -0.9585814 0 0.2848188 -0.8859362 0 0.4638074 -0.8859313 0 0.4638164 -0.7794195 0 0.6265025 -0.6422401 0 0.7665036 -0.7794221 3.53186e-7 0.6264992 -0.6422468 0 0.7664979 -0.47903 0 0.8777985 -0.4790522 0 0.8777865 0.9585844 0 0.2848091 0.8859388 0 0.4638021 0.7794247 0 0.626496 -0.6097098 0.7926247 0 -0.6097101 0.7926246 0 -0.6097103 0.7926245 0 -0.6097108 0.792624 0 -0.6097103 -0.7926245 0 -0.6097107 -0.792624 0 -0.60971 -0.7926246 0 -0.60971 -0.7926247 0 0 -0.7986862 -0.6017478 0 -0.7986862 -0.6017478 0 0.7986854 0.601749 0 0.7986854 0.601749 0.6097103 0.7926245 0 0.6097108 0.792624 0 0.60971 0.7926246 0 0.60971 0.7926247 0 0.6097103 -0.7926245 0 0.6097108 -0.792624 0 0.6097099 -0.7926247 0 0.60971 -0.7926246 0 0 -0.7986855 0.6017488 0 -0.7986856 0.6017487 0 0.798686 -0.6017481 0 0.7986861 -0.6017481 0.1000618 0 0.9949812 0 1 -1.36408e-7 0 1 0 0 1 1.37713e-7 0 1 0 0 1 0 -0.1000496 0 0.9949825 -0.2958516 0 0.9552339 -0.2958402 0 0.9552375 -0.1000596 0 0.9949815 7.98777e-7 -1 0 2.09593e-6 -1 0 -6.20719e-6 -1 2.56007e-5 7.98775e-7 -1 -5.42725e-6 0 -1 5.55576e-6 0 -1 -7.47672e-6 0 -1 5.34066e-6 0 -1 -4.17265e-6 3.05678e-7 -1 1.96758e-6 0 -1 -4.01226e-6 0 -1 -3.04652e-6 0 -1 2.67029e-6 0 -1 -3.73835e-6 0 -1 1.28003e-5 0 -1 -5.42725e-6 0 -1 2.08635e-6 3.05678e-7 -1 0 0 -1 2.00613e-6 0 -1 -4.42972e-6 0 -1 2.4032e-6 0.1000462 0 0.9949829 0.2958474 0 0.9552353 0.47903 0 0.8777985 0.4790344 0 0.8777961 0.6422499 0 0.7664954 0.6422559 0 0.7664903 0 -1 1.23021e-6 0.7794152 0 0.6265079 0.9585832 0 0.2848131 0 -1 3.66611e-6 0 -1 -2.38503e-6 0 -1 4.39553e-7 0.9953794 0 -0.09602057 0 1 4.51975e-6 0.9953793 0 0.09602159 0.9953792 0 -0.09602302 0 1 4.57131e-7 0.8859341 0 -0.4638113 0 1 5.17568e-7 0.8859401 0 -0.4638 0.7794152 0 -0.6265079 0.6422551 0 -0.7664909 0.7794176 0 -0.626505 0 1 5.60965e-6 0.6422366 0 -0.7665066 0.4790287 0 -0.8777992 0.4790334 0 -0.8777968 0.2958574 0 -0.9552322 0.2958482 0 -0.9552351 0.1000367 0 -0.9949839 -0.1000587 0 -0.9949815 -0.2958366 0 -0.9552386 -0.2958482 0 -0.9552351 -0.4790476 0 -0.877789 -0.6422401 0 -0.7665036 -0.6422484 0 -0.7664966 -0.7794144 0 -0.6265088 -0.8859388 0 -0.463802 -0.8859353 0 -0.463809 -0.958582 0 -0.284817 -0.9585832 0 -0.2848128 -0.9953795 0 -0.09601962 -0.9953795 0 0.09602004 -0.9953796 0 -0.09601861 -0.9953795 0 0.09601998 -0.9585848 0 0.2848076 -0.9585822 0 0.2848163 -0.8859349 0 0.4638098 -0.8859336 0 0.4638122 -0.7794168 0 0.6265058 -0.6422525 0 0.7664932 -0.7794221 0 0.6264991 -0.4790475 0 0.877789 -0.4790516 0 0.8777868 0.8859389 0 0.4638022 0.7794232 0 0.6264979 0.1000497 0 0.9949825 0 -1 0 0 -1 0 0 -1 0 0 -1 0 0 -1 0 0 -1 1.37713e-7 0 -1 2.70135e-7 0 -1 -1.3641e-7 0 -1 0 0 -1 0 0 -1 0 -0.1000329 0 0.9949842 -0.2958574 0 0.9552322 -0.295849 0 0.9552348 -0.100046 0 0.9949828 4.64035e-6 1 2.56007e-5 7.98776e-7 1 0 0 1 -5.55576e-6 0 1 -7.47671e-6 0 1 5.34059e-6 0 1 -2.21486e-6 0 1 2.00618e-6 0 1 -4.17265e-6 3.05678e-7 1 -1.96753e-6 0 1 -4.01216e-6 0 1 4.36513e-6 0 1 -3.73855e-6 0 1 -1.27987e-5 0 1 5.42753e-6 3.05678e-7 1 3.93526e-6 0 1 2.40323e-6 -6.20713e-6 1 3.84006e-5 7.98778e-7 1 -6.58888e-6 0.1000375 0 0.9949837 0.2958565 0 0.9552325 0.4790426 0 0.8777917 0.6422483 0 0.7664967 0.7794255 0 0.626495 0 -1 8.36527e-7 0 -1 -1.72523e-7 0 -1 4.84956e-6 0.9585832 0 0.2848128 0 1 2.76036e-6 0 1 -5.08806e-6 0 1 -3.82211e-7 0.9953796 0 -0.09601849 0 -1 4.39564e-7 0 -1 2.44615e-6 0.9953792 0 0.09602379 0.9953795 0 -0.09601944 0.958585 0 -0.2848068 0.8859388 0 -0.4638021 0.9585831 0 -0.2848131 0 1 2.1134e-6 0.7794168 0 -0.6265058 0.6422538 0 -0.7664921 0.7794158 0 -0.626507 0 -1 3.14928e-6 0.6422483 0 -0.7664967 0.4790111 0 -0.8778089 0.4790162 0 -0.8778061 0.2958574 -1.78499e-6 -0.9552322 0.2958685 0 -0.9552287 0.100049 0 -0.9949826 -0.100049 -1.74312e-6 -0.9949826 -0.2958574 0 -0.9552322 -0.2958685 0 -0.9552287 -0.4790138 0 -0.8778075 -0.4790191 0 -0.8778045 -0.6422387 0 -0.7665047 -0.7794155 0 -0.6265075 -0.7794175 0 -0.626505 -0.8859353 0 -0.463809 -0.8859364 0 -0.4638068 -0.9585829 0 -0.2848138 -0.99538 0 -0.09601408 -0.9953798 0 0.0960167 -0.9953802 0 -0.09601271 -0.9953797 0 0.09601771 -0.958585 0 0.2848067 -0.9585831 0 0.284813 -0.8859279 6.16746e-7 0.463823 -0.8859339 0 0.4638116 -0.6422517 0 0.7664937 -0.7794158 0 0.626507 -0.4790398 0 0.8777933 -0.4790264 0 0.8778006 0.9585838 0 0.284811 0.8859325 0 0.4638142 0.7794158 0 0.6265071</float_array>
          <technique_common>
            <accessor source="#Cube-mesh-normals-array" count="364" stride="3">
              <param name="X" type="float"/>
              <param name="Y" type="float"/>
              <param name="Z" type="float"/>
            </accessor>
          </technique_common>
        </source>
        <source id="Cube-mesh-map-0">
          <float_array id="Cube-mesh-map-0-array" count="4008">0.875 0.5 0.75 0.75 0.75 0.5 0.6118376 0.2719374 0.5 0.2719374 0.5 0.2719374 0.625 0 0.5 0.25 0.5 0 0.375 0.5 0.25 0.75 0.25 0.5 0.625 0.5 0.5 0.75 0.5 0.5 0.3881624 0.2719374 0.3881625 0.375 0.3881625 0.375 0.5 0.5 0.375 0.75 0.375 0.5 0.25 0.5 0.125 0.75 0.125 0.5 0.5 0 0.375 0.25 0.375 0 0.6118376 0.7719374 0.5 0.7719375 0.5 0.7719375 0.75 0.5 0.625 0.75 0.625 0.5 0.5 0.7719375 0.3881624 0.7719374 0.3881624 0.7719374 0.3881624 0.2719374 0.375 0.375 0.375 0.25 0.3881624 0.4780625 0.5 0.5 0.375 0.5 0.6118375 0.9780625 0.5 1 0.5 0.9780625 0.3881624 0.7719374 0.5 0.75 0.5 0.7719375 0.3881624 0.2719374 0.5 0.25 0.5 0.2719374 0.6118375 0.9780625 0.625 0.875 0.625 1 0.3881624 0.7719374 0.375 0.875 0.375 0.75 0.6118375 0.4780625 0.625 0.375 0.625 0.5 0.3881624 0.4780625 0.375 0.375 0.3881625 0.375 0.6118375 0.4780625 0.5 0.5 0.5 0.4780625 0.3881624 0.9780625 0.5 1 0.375 1 0.6118376 0.7719374 0.5 0.75 0.625 0.75 0.6118376 0.2719374 0.5 0.25 0.625 0.25 0.6118376 0.7719374 0.625 0.875 0.6118375 0.8750001 0.3881624 0.9780625 0.375 0.875 0.3881625 0.8750001 0.6118376 0.2719374 0.625 0.375 0.6118375 0.375 0.3881624 0.4780625 0.5 0.4780625 0.5 0.4780625 0.6069709 0.375 0.5048666 0.4699516 0.5048666 0.375 0.5 0.9780625 0.6118375 0.9780625 0.6118375 0.9780625 0.6069709 0.8750001 0.5048666 0.9699515 0.5048666 0.8750001 0.4951335 0.8750001 0.393029 0.9699515 0.3930291 0.8750001 0.3881624 0.7719374 0.3881625 0.8750001 0.3881625 0.8750001 0.3881625 0.8750001 0.3881624 0.9780625 0.3881624 0.9780625 0.6118375 0.8750001 0.6118376 0.7719374 0.6118376 0.7719374 0.6118375 0.4780625 0.6118375 0.375 0.6118375 0.375 0.6118375 0.375 0.6118376 0.2719374 0.6118376 0.2719374 0.3881625 0.375 0.3881624 0.4780625 0.3881624 0.4780625 0.6118375 0.9780625 0.6118375 0.8750001 0.6118375 0.8750001 0.5 0.4780625 0.6118375 0.4780625 0.6118375 0.4780625 0.5 0.2719374 0.3881624 0.2719374 0.3881624 0.2719374 0.3881624 0.9780625 0.5 0.9780625 0.5 0.9780625 0.5048666 0.2800483 0.6069709 0.2800483 0.6069709 0.2800483 0.5 0.9780625 0.6118375 0.9780625 0.6118375 0.9780625 0.6118375 0.4780625 0.6118375 0.375 0.6118375 0.375 0.6069709 0.375 0.6069709 0.2800483 0.6069709 0.375 0.6118376 0.7719374 0.5 0.7719375 0.5 0.7719375 0.6069708 0.9699516 0.5048666 0.9699515 0.5048666 0.9699515 0.5048666 0.7800484 0.6069709 0.7800484 0.6069709 0.7800484 0.4951334 0.4699516 0.393029 0.4699516 0.393029 0.4699516 0.3881624 0.7719374 0.3881625 0.8750001 0.3881625 0.8750001 0.3881624 0.9780625 0.5 0.9780625 0.5 0.9780625 0.3881624 0.4780625 0.5 0.4780625 0.5 0.4780625 0.4951335 0.8750001 0.4951334 0.9699516 0.4951334 0.9699516 0.4951334 0.9699516 0.393029 0.9699515 0.393029 0.9699515 0.3930291 0.375 0.393029 0.2800484 0.393029 0.2800484 0.5048666 0.375 0.5048666 0.2800483 0.5048666 0.2800483 0.6118375 0.9780625 0.6118375 0.8750001 0.6118375 0.8750001 0.6118375 0.375 0.6118376 0.2719374 0.6118376 0.2719374 0.6069708 0.4699516 0.5048666 0.4699516 0.5048666 0.4699516 0.3881624 0.2719374 0.3881625 0.375 0.3881625 0.375 0.4951335 0.375 0.393029 0.4699516 0.3930291 0.375 0.5048666 0.375 0.4951334 0.4699516 0.4951335 0.375 0.5048666 0.4699516 0.6069708 0.4699516 0.6118375 0.4780625 0.5 0.7719375 0.6069709 0.7800484 0.5048666 0.7800484 0.5048666 0.8750001 0.4951334 0.9699516 0.4951335 0.8750001 0.6118375 0.8750001 0.6069708 0.9699516 0.6069709 0.8750001 0.3881625 0.375 0.393029 0.2800484 0.3930291 0.375 0.5 0.2719374 0.6069709 0.2800483 0.5048666 0.2800483 0.3881624 0.9780625 0.393029 0.9699515 0.4951334 0.9699516 0.4951335 0.375 0.4951334 0.2800484 0.4951335 0.375 0.6069709 0.8750001 0.6069708 0.9699516 0.6069708 0.9699516 0.393029 0.7800484 0.4951334 0.7800484 0.4951334 0.7800484 0.6118376 0.2719374 0.5 0.2719374 0.5 0.2719374 0.3930291 0.8750001 0.393029 0.7800484 0.393029 0.7800484 0.6118375 0.8750001 0.6118376 0.7719374 0.6118376 0.7719374 0.3881625 0.375 0.3881624 0.4780625 0.3881624 0.4780625 0.5 0.7719375 0.3881624 0.7719374 0.3881624 0.7719374 0.393029 0.4699516 0.3930291 0.375 0.3930291 0.375 0.393029 0.2800484 0.4951334 0.2800484 0.4951334 0.2800484 0.3881625 0.8750001 0.3881624 0.9780625 0.3881624 0.9780625 0.5 0.4780625 0.6118375 0.4780625 0.6118375 0.4780625 0.5 0.2719374 0.3881624 0.2719374 0.3881624 0.2719374 0.3881625 0.8750001 0.393029 0.7800484 0.3930291 0.8750001 0.6118375 0.375 0.6069708 0.4699516 0.6069709 0.375 1 0.5 0.96875 1 0.96875 0.5 0.6166634 0.4495529 0.6581563 0.4717312 0.8833369 0.4495527 0.03125 1 0 0.5 0.03125 0.5 0.0625 0.5 0.03125 1 0.03125 0.5 0.0625 1 0.03125 1 0.03125 1 0 1 0.03125 1 0 1 0.4197056 0.4197056 0.3833369 0.4495527 0.08029454 0.4197058 1 1 0.96875 1 0.96875 1 0.96875 1 0.9375 1 0.9375 1 0.96875 1 0.9375 0.5 0.96875 0.5 0.9375 1 0.90625 0.5 0.9375 0.5 0.90625 1 0.9375 1 0.90625 1 0.90625 1 0.875 0.5 0.90625 0.5 0.90625 1 0.875 1 0.875 1 0.4495527 0.3833369 0.4197056 0.4197056 0.4197056 0.4197056 0.875 1 0.875 1 0.875 1 0.875 1 0.84375 1 0.84375 1 0.84375 1 0.875 1 0.84375 1 0.8125 1 0.84375 1 0.8125 1 0.8125 1 0.84375 1 0.8125 1 0.78125 1 0.8125 1 0.78125 1 0.8125 1 0.78125 1 0.78125 1 0.4717311 0.341844 0.4495527 0.3833369 0.4495527 0.3833369 0.4853885 0.2968217 0.4717311 0.341844 0.4717311 0.341844 0.49 0.25 0.4853885 0.2968217 0.4853885 0.2968217 0.49 0.25 0.4853885 0.2031783 0.49 0.25 0.78125 1 0.75 1 0.75 1 0.75 1 0.71875 1 0.71875 1 0.75 1 0.78125 1 0.75 1 0.75 1 0.71875 1 0.71875 1 0.78125 1 0.75 0.5 0.78125 0.5 0.75 0.5 0.71875 1 0.71875 0.5 0.71875 1 0.6875 0.5 0.71875 0.5 0.71875 1 0.6875 1 0.6875 1 0.6875 1 0.65625 0.5 0.6875 0.5 0.6875 1 0.65625 1 0.65625 1 0.6875 1 0.71875 1 0.6875 1 0.6875 1 0.65625 1 0.65625 1 0.4717311 0.158156 0.4495527 0.1166631 0.4717311 0.158156 0.4853885 0.2031783 0.4717311 0.158156 0.4853885 0.2031783 0.4495527 0.1166631 0.4197056 0.08029437 0.4495527 0.1166631 0.65625 1 0.625 1 0.625 1 0.625 1 0.625 1 0.625 1 0.625 1 0.59375 1 0.59375 1 0.65625 0.5 0.625 1 0.625 0.5 0.65625 1 0.625 1 0.625 1 0.625 1 0.59375 0.5 0.625 0.5 0.59375 1 0.5625 0.5 0.59375 0.5 0.59375 1 0.5625 1 0.5625 1 0.5625 1 0.53125 0.5 0.5625 0.5 0.5625 1 0.53125 1 0.53125 1 0.53125 1 0.5 1 0.5 1 0.5 1 0.46875 1 0.46875 1 0.53125 1 0.5 0.5 0.53125 0.5 0.5 1 0.46875 0.5 0.5 0.5 0.46875 1 0.4375 0.5 0.46875 0.5 0.46875 1 0.4375 1 0.4375 1 0.4375 1 0.40625 0.5 0.4375 0.5 0.4375 1 0.40625 1 0.40625 1 0.40625 1 0.375 1 0.375 1 0.34375 1 0.375 1 0.34375 1 0.40625 1 0.375 0.5 0.40625 0.5 0.375 1 0.34375 0.5 0.375 0.5 0.34375 1 0.3125 0.5 0.34375 0.5 0.34375 1 0.3125 1 0.3125 1 0.3125 1 0.28125 0.5 0.3125 0.5 0.3125 1 0.28125 1 0.28125 1 0.25 1 0.28125 1 0.25 1 0.25 1 0.21875 1 0.21875 1 0.28125 1 0.25 0.5 0.28125 0.5 0.25 0.5 0.21875 1 0.21875 0.5 0.21875 1 0.1875 0.5 0.21875 0.5 0.1875 1 0.21875 1 0.1875 1 0.1875 0.5 0.15625 1 0.15625 0.5 0.1875 1 0.15625 1 0.15625 1 0.15625 1 0.125 1 0.125 1 0.125 1 0.09375 1 0.09375 1 0.15625 0.5 0.125 1 0.125 0.5 0.125 1 0.09375 0.5 0.125 0.5 0.09375 1 0.0625 0.5 0.09375 0.5 0.0625 1 0.09375 1 0.0625 1 0.8125 0.5 0.78125 1 0.78125 0.5 0.84375 1 0.8125 0.5 0.84375 0.5 0.875 1 0.84375 0.5 0.875 0.5 1 0.5 0.96875 1 1 1 0.8833369 0.4495527 0.841844 0.4717311 0.6166634 0.4495529 0 0.5 0.03125 1 0.03125 0.5 0.0625 0.5 0.03125 1 0.0625 1 0.03125 1 0.0625 1 0.03125 1 0 1 0.03125 1 0.03125 1 0.341844 0.02826887 0.2499999 0.00999999 0.1581559 0.02826893 0.96875 1 1 1 0.96875 1 0.9375 1 0.96875 1 0.9375 1 0.9375 0.5 0.96875 1 0.96875 0.5 0.90625 0.5 0.9375 1 0.9375 0.5 0.90625 1 0.9375 1 0.9375 1 0.875 0.5 0.90625 1 0.90625 0.5 0.875 1 0.90625 1 0.875 1 0.4197056 0.4197056 0.4495527 0.3833369 0.4197056 0.4197056 0.875 1 0.875 1 0.875 1 0.84375 1 0.875 1 0.84375 1 0.84375 1 0.875 1 0.875 1 0.8125 1 0.84375 1 0.84375 1 0.8125 1 0.84375 1 0.84375 1 0.78125 1 0.8125 1 0.8125 1 0.78125 1 0.8125 1 0.78125 1 0.4495527 0.3833369 0.4717311 0.341844 0.4495527 0.3833369 0.4717311 0.341844 0.4853885 0.2968217 0.4717311 0.341844 0.4853885 0.2968217 0.49 0.25 0.4853885 0.2968217 0.49 0.25 0.4853885 0.2031783 0.4853885 0.2031783 0.75 1 0.78125 1 0.75 1 0.71875 1 0.75 1 0.71875 1 0.75 1 0.78125 1 0.78125 1 0.71875 1 0.75 1 0.71875 1 0.75 0.5 0.78125 1 0.78125 0.5 0.75 0.5 0.71875 1 0.75 1 0.6875 0.5 0.71875 1 0.71875 0.5 0.6875 1 0.71875 1 0.6875 1 0.65625 0.5 0.6875 1 0.6875 0.5 0.65625 1 0.6875 1 0.65625 1 0.6875 1 0.71875 1 0.71875 1 0.65625 1 0.6875 1 0.65625 1 0.4717311 0.158156 0.4495527 0.1166631 0.4495527 0.1166631 0.4853885 0.2031783 0.4717311 0.158156 0.4717311 0.158156 0.4495527 0.1166631 0.4197056 0.08029437 0.4197056 0.08029437 0.625 1 0.65625 1 0.625 1 0.625 1 0.625 1 0.625 1 0.59375 1 0.625 1 0.59375 1 0.65625 0.5 0.625 1 0.65625 1 0.625 1 0.65625 1 0.625 1 0.59375 0.5 0.625 1 0.625 0.5 0.5625 0.5 0.59375 1 0.59375 0.5 0.5625 1 0.59375 1 0.5625 1 0.53125 0.5 0.5625 1 0.5625 0.5 0.53125 1 0.5625 1 0.53125 1 0.5 1 0.53125 1 0.5 1 0.46875 1 0.5 1 0.46875 1 0.5 0.5 0.53125 1 0.53125 0.5 0.46875 0.5 0.5 1 0.5 0.5 0.46875 0.5 0.4375 1 0.46875 1 0.4375 1 0.46875 1 0.4375 1 0.40625 0.5 0.4375 1 0.4375 0.5 0.40625 1 0.4375 1 0.40625 1 0.375 1 0.40625 1 0.375 1 0.34375 1 0.375 1 0.375 1 0.375 0.5 0.40625 1 0.40625 0.5 0.34375 0.5 0.375 1 0.375 0.5 0.3125 0.5 0.34375 1 0.34375 0.5 0.3125 1 0.34375 1 0.3125 1 0.28125 0.5 0.3125 1 0.3125 0.5 0.28125 1 0.3125 1 0.28125 1 0.25 1 0.28125 1 0.28125 1 0.21875 1 0.25 1 0.21875 1 0.25 0.5 0.28125 1 0.28125 0.5 0.25 0.5 0.21875 1 0.25 1 0.1875 0.5 0.21875 1 0.21875 0.5 0.1875 1 0.21875 1 0.21875 1 0.1875 0.5 0.15625 1 0.1875 1 0.15625 1 0.1875 1 0.15625 1 0.125 1 0.15625 1 0.125 1 0.09375 1 0.125 1 0.09375 1 0.15625 0.5 0.125 1 0.15625 1 0.09375 0.5 0.125 1 0.125 0.5 0.0625 0.5 0.09375 1 0.09375 0.5 0.0625 1 0.09375 1 0.09375 1 0.8125 0.5 0.78125 1 0.8125 1 0.8125 0.5 0.84375 1 0.84375 0.5 0.84375 0.5 0.875 1 0.875 0.5 0.5048666 0.8750001 0.5048666 0.9699515 0.5048666 0.8750001 0.875 0.5 0.875 0.75 0.75 0.75 0.6118376 0.2719374 0.6118376 0.2719374 0.5 0.2719374 0.625 0 0.625 0.25 0.5 0.25 0.375 0.5 0.375 0.75 0.25 0.75 0.625 0.5 0.625 0.75 0.5 0.75 0.3881624 0.2719374 0.3881624 0.2719374 0.3881625 0.375 0.5 0.5 0.5 0.75 0.375 0.75 0.25 0.5 0.25 0.75 0.125 0.75 0.5 0 0.5 0.25 0.375 0.25 0.6118376 0.7719374 0.6118376 0.7719374 0.5 0.7719375 0.75 0.5 0.75 0.75 0.625 0.75 0.5 0.7719375 0.5 0.7719375 0.3881624 0.7719374 0.3881624 0.2719374 0.3881625 0.375 0.375 0.375 0.3881624 0.4780625 0.5 0.4780625 0.5 0.5 0.6118375 0.9780625 0.625 1 0.5 1 0.3881624 0.7719374 0.375 0.75 0.5 0.75 0.3881624 0.2719374 0.375 0.25 0.5 0.25 0.6118375 0.9780625 0.6118375 0.8750001 0.625 0.875 0.3881624 0.7719374 0.3881625 0.8750001 0.375 0.875 0.6118375 0.4780625 0.6118375 0.375 0.625 0.375 0.3881624 0.4780625 0.375 0.5 0.375 0.375 0.6118375 0.4780625 0.625 0.5 0.5 0.5 0.3881624 0.9780625 0.5 0.9780625 0.5 1 0.6118376 0.7719374 0.5 0.7719375 0.5 0.75 0.6118376 0.2719374 0.5 0.2719374 0.5 0.25 0.6118376 0.7719374 0.625 0.75 0.625 0.875 0.3881624 0.9780625 0.375 1 0.375 0.875 0.6118376 0.2719374 0.625 0.25 0.625 0.375 0.3881624 0.4780625 0.3881624 0.4780625 0.5 0.4780625 0.5048666 0.375 0.5048666 0.2800483 0.6069709 0.2800483 0.6069709 0.375 0.6069708 0.4699516 0.5048666 0.4699516 0.5048666 0.375 0.6069709 0.2800483 0.6069709 0.375 0.5 0.9780625 0.5 0.9780625 0.6118375 0.9780625 0.5048666 0.8750001 0.5048666 0.7800484 0.6069709 0.7800484 0.6069709 0.8750001 0.6069708 0.9699516 0.5048666 0.9699515 0.5048666 0.8750001 0.6069709 0.7800484 0.6069709 0.8750001 0.3930291 0.8750001 0.393029 0.7800484 0.4951334 0.7800484 0.4951335 0.8750001 0.4951334 0.9699516 0.393029 0.9699515 0.3930291 0.8750001 0.4951334 0.7800484 0.4951335 0.8750001 0.3881624 0.7719374 0.3881624 0.7719374 0.3881625 0.8750001 0.3881625 0.8750001 0.3881625 0.8750001 0.3881624 0.9780625 0.6118375 0.8750001 0.6118375 0.8750001 0.6118376 0.7719374 0.6118375 0.4780625 0.6118375 0.4780625 0.6118375 0.375 0.6118375 0.375 0.6118375 0.375 0.6118376 0.2719374 0.3881625 0.375 0.3881625 0.375 0.3881624 0.4780625 0.6118375 0.9780625 0.6118375 0.9780625 0.6118375 0.8750001 0.5 0.4780625 0.5 0.4780625 0.6118375 0.4780625 0.5 0.2719374 0.5 0.2719374 0.3881624 0.2719374 0.3881624 0.9780625 0.3881624 0.9780625 0.5 0.9780625 0.5048666 0.2800483 0.5048666 0.2800483 0.6069709 0.2800483 0.5 0.9780625 0.5 0.9780625 0.6118375 0.9780625 0.6118375 0.4780625 0.6118375 0.4780625 0.6118375 0.375 0.6069708 0.4699516 0.6069708 0.4699516 0.6069709 0.375 0.6069709 0.375 0.6069709 0.2800483 0.6069709 0.2800483 0.6069709 0.375 0.6069708 0.4699516 0.6069709 0.375 0.6118376 0.7719374 0.6118376 0.7719374 0.5 0.7719375 0.6069708 0.9699516 0.6069708 0.9699516 0.5048666 0.9699515 0.5048666 0.7800484 0.5048666 0.7800484 0.6069709 0.7800484 0.4951334 0.4699516 0.4951334 0.4699516 0.393029 0.4699516 0.3881624 0.7719374 0.3881624 0.7719374 0.3881625 0.8750001 0.3881624 0.9780625 0.3881624 0.9780625 0.5 0.9780625 0.3881624 0.4780625 0.3881624 0.4780625 0.5 0.4780625 0.4951334 0.9699516 0.4951335 0.8750001 0.4951335 0.8750001 0.4951335 0.8750001 0.4951334 0.7800484 0.4951335 0.8750001 0.4951334 0.7800484 0.4951334 0.7800484 0.4951335 0.8750001 0.4951334 0.9699516 0.4951334 0.9699516 0.393029 0.9699515 0.3930291 0.375 0.3930291 0.375 0.393029 0.2800484 0.5048666 0.2800483 0.5048666 0.375 0.5048666 0.375 0.5048666 0.375 0.5048666 0.4699516 0.5048666 0.375 0.5048666 0.4699516 0.5048666 0.4699516 0.5048666 0.375 0.6118375 0.9780625 0.6118375 0.9780625 0.6118375 0.8750001 0.6118375 0.375 0.6118375 0.375 0.6118376 0.2719374 0.6069708 0.4699516 0.6069708 0.4699516 0.5048666 0.4699516 0.3881624 0.2719374 0.3881624 0.2719374 0.3881625 0.375 0.3930291 0.375 0.393029 0.2800484 0.4951334 0.2800484 0.4951335 0.375 0.4951334 0.4699516 0.393029 0.4699516 0.3930291 0.375 0.4951334 0.2800484 0.4951335 0.375 0.4951334 0.2800484 0.5048666 0.2800483 0.5048666 0.375 0.5048666 0.375 0.5048666 0.4699516 0.4951334 0.4699516 0.4951335 0.375 0.4951334 0.2800484 0.5048666 0.375 0.6118375 0.4780625 0.5 0.4780625 0.5048666 0.4699516 0.5 0.4780625 0.3881624 0.4780625 0.4951334 0.4699516 0.5048666 0.4699516 0.5 0.4780625 0.4951334 0.4699516 0.3881624 0.4780625 0.393029 0.4699516 0.4951334 0.4699516 0.5048666 0.7800484 0.4951334 0.7800484 0.5 0.7719375 0.4951334 0.7800484 0.393029 0.7800484 0.5 0.7719375 0.393029 0.7800484 0.3881624 0.7719374 0.5 0.7719375 0.5 0.7719375 0.6118376 0.7719374 0.6069709 0.7800484 0.4951334 0.7800484 0.5048666 0.7800484 0.5048666 0.8750001 0.5048666 0.8750001 0.5048666 0.9699515 0.4951334 0.9699516 0.4951335 0.8750001 0.4951334 0.7800484 0.5048666 0.8750001 0.6069709 0.7800484 0.6118376 0.7719374 0.6118375 0.8750001 0.6118375 0.8750001 0.6118375 0.9780625 0.6069708 0.9699516 0.6069709 0.8750001 0.6069709 0.7800484 0.6118375 0.8750001 0.393029 0.4699516 0.3881624 0.4780625 0.3881625 0.375 0.3881625 0.375 0.3881624 0.2719374 0.393029 0.2800484 0.3930291 0.375 0.393029 0.4699516 0.3881625 0.375 0.5048666 0.2800483 0.4951334 0.2800484 0.5 0.2719374 0.4951334 0.2800484 0.393029 0.2800484 0.5 0.2719374 0.393029 0.2800484 0.3881624 0.2719374 0.5 0.2719374 0.5 0.2719374 0.6118376 0.2719374 0.6069709 0.2800483 0.4951334 0.9699516 0.5048666 0.9699515 0.5 0.9780625 0.5048666 0.9699515 0.6069708 0.9699516 0.5 0.9780625 0.6069708 0.9699516 0.6118375 0.9780625 0.5 0.9780625 0.5 0.9780625 0.3881624 0.9780625 0.4951334 0.9699516 0.4951334 0.4699516 0.4951334 0.4699516 0.4951335 0.375 0.4951335 0.375 0.4951334 0.2800484 0.4951334 0.2800484 0.4951335 0.375 0.4951334 0.4699516 0.4951335 0.375 0.6069708 0.9699516 0.6069709 0.8750001 0.6069709 0.8750001 0.6069709 0.8750001 0.6069709 0.7800484 0.6069709 0.8750001 0.6069709 0.7800484 0.6069709 0.7800484 0.6069709 0.8750001 0.393029 0.7800484 0.393029 0.7800484 0.4951334 0.7800484 0.6118376 0.2719374 0.6118376 0.2719374 0.5 0.2719374 0.393029 0.7800484 0.3930291 0.8750001 0.3930291 0.8750001 0.3930291 0.8750001 0.393029 0.9699515 0.3930291 0.8750001 0.393029 0.9699515 0.393029 0.9699515 0.3930291 0.8750001 0.6118375 0.8750001 0.6118375 0.8750001 0.6118376 0.7719374 0.3881625 0.375 0.3881625 0.375 0.3881624 0.4780625 0.5 0.7719375 0.5 0.7719375 0.3881624 0.7719374 0.393029 0.4699516 0.393029 0.4699516 0.3930291 0.375 0.393029 0.2800484 0.393029 0.2800484 0.4951334 0.2800484 0.3881625 0.8750001 0.3881625 0.8750001 0.3881624 0.9780625 0.5 0.4780625 0.5 0.4780625 0.6118375 0.4780625 0.5 0.2719374 0.5 0.2719374 0.3881624 0.2719374 0.393029 0.9699515 0.3881624 0.9780625 0.3881625 0.8750001 0.3881625 0.8750001 0.3881624 0.7719374 0.393029 0.7800484 0.3930291 0.8750001 0.393029 0.9699515 0.3881625 0.8750001 0.6069709 0.2800483 0.6118376 0.2719374 0.6118375 0.375 0.6118375 0.375 0.6118375 0.4780625 0.6069708 0.4699516 0.6069709 0.375 0.6069709 0.2800483 0.6118375 0.375 1 0.5 1 1 0.96875 1 0.7031787 0.4853885 0.75 0.49 0.7968217 0.4853885 0.7968217 0.4853885 0.841844 0.4717311 0.7031787 0.4853885 0.841844 0.4717311 0.8833369 0.4495527 0.6581563 0.4717312 0.7031787 0.4853885 0.841844 0.4717311 0.6581563 0.4717312 0.8833369 0.4495527 0.9197056 0.4197056 0.5802946 0.4197058 0.9197056 0.4197056 0.9495527 0.3833369 0.5504475 0.3833371 0.9495527 0.3833369 0.9717311 0.341844 0.5504475 0.3833371 0.9717311 0.341844 0.9853885 0.2968217 0.5282691 0.3418443 0.5504475 0.3833371 0.9717311 0.341844 0.5282691 0.3418443 0.9853885 0.2968217 0.99 0.25 0.51 0.2500002 0.99 0.25 0.9853885 0.2031783 0.5146115 0.2031785 0.9853885 0.2031783 0.9717311 0.158156 0.5146115 0.2031785 0.9717311 0.158156 0.9495527 0.1166631 0.5282688 0.1581561 0.5146115 0.2031785 0.9717311 0.158156 0.5282688 0.1581561 0.9495527 0.1166631 0.9197056 0.08029437 0.5802943 0.08029448 0.9197056 0.08029437 0.8833369 0.05044728 0.616663 0.05044734 0.8833369 0.05044728 0.841844 0.02826887 0.616663 0.05044734 0.841844 0.02826887 0.7968216 0.01461148 0.6581559 0.02826893 0.616663 0.05044734 0.841844 0.02826887 0.6581559 0.02826893 0.7968216 0.01461148 0.75 0.00999999 0.7031782 0.01461154 0.7031782 0.01461154 0.6581559 0.02826893 0.7968216 0.01461148 0.616663 0.05044734 0.5802943 0.08029448 0.9197056 0.08029437 0.5802943 0.08029448 0.5504472 0.1166633 0.9495527 0.1166631 0.5504472 0.1166633 0.5282688 0.1581561 0.9495527 0.1166631 0.5146115 0.2031785 0.51 0.2500002 0.99 0.25 0.51 0.2500002 0.5146116 0.2968219 0.9853885 0.2968217 0.5146116 0.2968219 0.5282691 0.3418443 0.9853885 0.2968217 0.5504475 0.3833371 0.5802946 0.4197058 0.9197056 0.4197056 0.5802946 0.4197058 0.6166634 0.4495529 0.8833369 0.4495527 0.03125 1 0 1 0 0.5 0.0625 0.5 0.0625 1 0.03125 1 0.0625 1 0.0625 1 0.03125 1 0 1 0.03125 1 0.03125 1 0.341844 0.4717311 0.2968217 0.4853885 0.1581563 0.4717312 0.2968217 0.4853885 0.25 0.49 0.1581563 0.4717312 0.25 0.49 0.2031787 0.4853885 0.1581563 0.4717312 0.1581563 0.4717312 0.1166634 0.4495529 0.341844 0.4717311 0.1166634 0.4495529 0.08029454 0.4197058 0.3833369 0.4495527 0.341844 0.4717311 0.1166634 0.4495529 0.3833369 0.4495527 0.08029454 0.4197058 0.05044746 0.3833371 0.4197056 0.4197056 0.05044746 0.3833371 0.02826899 0.3418443 0.4495527 0.3833369 0.4197056 0.4197056 0.05044746 0.3833371 0.4495527 0.3833369 0.02826899 0.3418443 0.01461154 0.2968219 0.4853885 0.2968217 0.01461154 0.2968219 0.00999999 0.2500002 0.49 0.25 0.00999999 0.2500002 0.01461148 0.2031785 0.4853885 0.2031783 0.01461148 0.2031785 0.02826881 0.1581561 0.4717311 0.158156 0.02826881 0.1581561 0.05044716 0.1166633 0.4717311 0.158156 0.05044716 0.1166633 0.08029425 0.08029448 0.4495527 0.1166631 0.4717311 0.158156 0.05044716 0.1166633 0.4495527 0.1166631 0.08029425 0.08029448 0.116663 0.05044734 0.4197056 0.08029437 0.116663 0.05044734 0.1581559 0.02826893 0.3833369 0.05044728 0.4197056 0.08029437 0.116663 0.05044734 0.3833369 0.05044728 0.1581559 0.02826893 0.2031782 0.01461154 0.341844 0.02826887 0.2031782 0.01461154 0.2499999 0.00999999 0.341844 0.02826887 0.2499999 0.00999999 0.2968216 0.01461148 0.341844 0.02826887 0.341844 0.02826887 0.3833369 0.05044728 0.1581559 0.02826893 0.4197056 0.08029437 0.4495527 0.1166631 0.08029425 0.08029448 0.4717311 0.158156 0.4853885 0.2031783 0.01461148 0.2031785 0.4853885 0.2031783 0.49 0.25 0.00999999 0.2500002 0.49 0.25 0.4853885 0.2968217 0.01461154 0.2968219 0.4853885 0.2968217 0.4717311 0.341844 0.02826899 0.3418443 0.4717311 0.341844 0.4495527 0.3833369 0.02826899 0.3418443 1 1 1 1 0.96875 1 0.96875 1 0.96875 1 0.9375 1 0.96875 1 0.9375 1 0.9375 0.5 0.9375 1 0.90625 1 0.90625 0.5 0.90625 1 0.9375 1 0.9375 1 0.90625 1 0.875 1 0.875 0.5 0.90625 1 0.90625 1 0.875 1 0.4495527 0.3833369 0.4495527 0.3833369 0.4197056 0.4197056 0.875 1 0.875 1 0.875 1 0.875 1 0.875 1 0.84375 1 0.84375 1 0.875 1 0.875 1 0.8125 1 0.84375 1 0.84375 1 0.8125 1 0.84375 1 0.84375 1 0.78125 1 0.8125 1 0.8125 1 0.8125 1 0.8125 1 0.78125 1 0.4717311 0.341844 0.4717311 0.341844 0.4495527 0.3833369 0.4853885 0.2968217 0.4853885 0.2968217 0.4717311 0.341844 0.49 0.25 0.49 0.25 0.4853885 0.2968217 0.49 0.25 0.4853885 0.2031783 0.4853885 0.2031783 0.78125 1 0.78125 1 0.75 1 0.75 1 0.75 1 0.71875 1 0.75 1 0.78125 1 0.78125 1 0.75 1 0.75 1 0.71875 1 0.78125 1 0.75 1 0.75 0.5 0.75 0.5 0.75 1 0.71875 1 0.71875 1 0.6875 1 0.6875 0.5 0.71875 1 0.71875 1 0.6875 1 0.6875 1 0.65625 1 0.65625 0.5 0.6875 1 0.6875 1 0.65625 1 0.6875 1 0.71875 1 0.71875 1 0.6875 1 0.6875 1 0.65625 1 0.4717311 0.158156 0.4495527 0.1166631 0.4495527 0.1166631 0.4853885 0.2031783 0.4717311 0.158156 0.4717311 0.158156 0.4495527 0.1166631 0.4197056 0.08029437 0.4197056 0.08029437 0.65625 1 0.65625 1 0.625 1 0.625 1 0.625 1 0.625 1 0.625 1 0.625 1 0.59375 1 0.65625 0.5 0.65625 1 0.625 1 0.65625 1 0.65625 1 0.625 1 0.625 1 0.59375 1 0.59375 0.5 0.59375 1 0.5625 1 0.5625 0.5 0.59375 1 0.59375 1 0.5625 1 0.5625 1 0.53125 1 0.53125 0.5 0.5625 1 0.5625 1 0.53125 1 0.53125 1 0.53125 1 0.5 1 0.5 1 0.5 1 0.46875 1 0.53125 1 0.5 1 0.5 0.5 0.5 1 0.46875 1 0.46875 0.5 0.46875 1 0.4375 1 0.4375 0.5 0.46875 1 0.46875 1 0.4375 1 0.4375 1 0.40625 1 0.40625 0.5 0.4375 1 0.4375 1 0.40625 1 0.40625 1 0.40625 1 0.375 1 0.34375 1 0.375 1 0.375 1 0.40625 1 0.375 1 0.375 0.5 0.375 1 0.34375 1 0.34375 0.5 0.34375 1 0.3125 1 0.3125 0.5 0.34375 1 0.34375 1 0.3125 1 0.3125 1 0.28125 1 0.28125 0.5 0.3125 1 0.3125 1 0.28125 1 0.25 1 0.28125 1 0.28125 1 0.25 1 0.25 1 0.21875 1 0.28125 1 0.25 1 0.25 0.5 0.25 0.5 0.25 1 0.21875 1 0.21875 1 0.1875 1 0.1875 0.5 0.1875 1 0.21875 1 0.21875 1 0.1875 0.5 0.1875 1 0.15625 1 0.1875 1 0.1875 1 0.15625 1 0.15625 1 0.15625 1 0.125 1 0.125 1 0.125 1 0.09375 1 0.15625 0.5 0.15625 1 0.125 1 0.125 1 0.09375 1 0.09375 0.5 0.09375 1 0.0625 1 0.0625 0.5 0.0625 1 0.09375 1 0.09375 1 0.8125 0.5 0.8125 1 0.78125 1 0.84375 1 0.8125 1 0.8125 0.5 0.875 1 0.84375 1 0.84375 0.5 1 0.5 0.96875 0.5 0.96875 1 0.7968217 0.4853885 0.75 0.49 0.7031787 0.4853885 0.7031787 0.4853885 0.6581563 0.4717312 0.7968217 0.4853885 0.6581563 0.4717312 0.6166634 0.4495529 0.841844 0.4717311 0.7968217 0.4853885 0.6581563 0.4717312 0.841844 0.4717311 0.6166634 0.4495529 0.5802946 0.4197058 0.9197056 0.4197056 0.5802946 0.4197058 0.5504475 0.3833371 0.9495527 0.3833369 0.5504475 0.3833371 0.5282691 0.3418443 0.9495527 0.3833369 0.5282691 0.3418443 0.5146116 0.2968219 0.9717311 0.341844 0.9495527 0.3833369 0.5282691 0.3418443 0.9717311 0.341844 0.5146116 0.2968219 0.51 0.2500002 0.99 0.25 0.51 0.2500002 0.5146115 0.2031785 0.9853885 0.2031783 0.5146115 0.2031785 0.5282688 0.1581561 0.9853885 0.2031783 0.5282688 0.1581561 0.5504472 0.1166633 0.9717311 0.158156 0.9853885 0.2031783 0.5282688 0.1581561 0.9717311 0.158156 0.5504472 0.1166633 0.5802943 0.08029448 0.9197056 0.08029437 0.5802943 0.08029448 0.616663 0.05044734 0.8833369 0.05044728 0.616663 0.05044734 0.6581559 0.02826893 0.8833369 0.05044728 0.6581559 0.02826893 0.7031782 0.01461154 0.841844 0.02826887 0.8833369 0.05044728 0.6581559 0.02826893 0.841844 0.02826887 0.7031782 0.01461154 0.75 0.00999999 0.7968216 0.01461148 0.7968216 0.01461148 0.841844 0.02826887 0.7031782 0.01461154 0.8833369 0.05044728 0.9197056 0.08029437 0.5802943 0.08029448 0.9197056 0.08029437 0.9495527 0.1166631 0.5504472 0.1166633 0.9495527 0.1166631 0.9717311 0.158156 0.5504472 0.1166633 0.9853885 0.2031783 0.99 0.25 0.51 0.2500002 0.99 0.25 0.9853885 0.2968217 0.5146116 0.2968219 0.9853885 0.2968217 0.9717311 0.341844 0.5146116 0.2968219 0.9495527 0.3833369 0.9197056 0.4197056 0.5802946 0.4197058 0.9197056 0.4197056 0.8833369 0.4495527 0.6166634 0.4495529 0 0.5 0 1 0.03125 1 0.0625 0.5 0.03125 0.5 0.03125 1 0.03125 1 0.0625 1 0.0625 1 0 1 0 1 0.03125 1 0.25 0.49 0.2968217 0.4853885 0.341844 0.4717311 0.341844 0.4717311 0.3833369 0.4495527 0.1581563 0.4717312 0.3833369 0.4495527 0.4197056 0.4197056 0.1166634 0.4495529 0.1581563 0.4717312 0.3833369 0.4495527 0.1166634 0.4495529 0.4197056 0.4197056 0.4495527 0.3833369 0.08029454 0.4197058 0.4495527 0.3833369 0.4717311 0.341844 0.05044746 0.3833371 0.08029454 0.4197058 0.4495527 0.3833369 0.05044746 0.3833371 0.4717311 0.341844 0.4853885 0.2968217 0.02826899 0.3418443 0.4853885 0.2968217 0.49 0.25 0.01461154 0.2968219 0.02826899 0.3418443 0.4853885 0.2968217 0.01461154 0.2968219 0.49 0.25 0.4853885 0.2031783 0.00999999 0.2500002 0.4853885 0.2031783 0.4717311 0.158156 0.01461148 0.2031785 0.00999999 0.2500002 0.4853885 0.2031783 0.01461148 0.2031785 0.4717311 0.158156 0.4495527 0.1166631 0.02826881 0.1581561 0.4495527 0.1166631 0.4197056 0.08029437 0.05044716 0.1166633 0.02826881 0.1581561 0.4495527 0.1166631 0.05044716 0.1166633 0.4197056 0.08029437 0.3833369 0.05044728 0.08029425 0.08029448 0.3833369 0.05044728 0.341844 0.02826887 0.116663 0.05044734 0.08029425 0.08029448 0.3833369 0.05044728 0.116663 0.05044734 0.341844 0.02826887 0.2968216 0.01461148 0.2499999 0.00999999 0.2499999 0.00999999 0.2031782 0.01461154 0.1581559 0.02826893 0.1581559 0.02826893 0.116663 0.05044734 0.341844 0.02826887 0.08029425 0.08029448 0.05044716 0.1166633 0.4197056 0.08029437 0.02826881 0.1581561 0.01461148 0.2031785 0.4717311 0.158156 0.00999999 0.2500002 0.01461154 0.2968219 0.49 0.25 0.02826899 0.3418443 0.05044746 0.3833371 0.4717311 0.341844 0.08029454 0.4197058 0.1166634 0.4495529 0.4197056 0.4197056 0.1581563 0.4717312 0.2031787 0.4853885 0.25 0.49 0.25 0.49 0.341844 0.4717311 0.1581563 0.4717312 0.96875 1 1 1 1 1 0.9375 1 0.96875 1 0.96875 1 0.9375 0.5 0.9375 1 0.96875 1 0.90625 0.5 0.90625 1 0.9375 1 0.90625 1 0.90625 1 0.9375 1 0.875 0.5 0.875 1 0.90625 1 0.875 1 0.90625 1 0.90625 1 0.4197056 0.4197056 0.4495527 0.3833369 0.4495527 0.3833369 0.875 1 0.875 1 0.875 1 0.84375 1 0.875 1 0.875 1 0.84375 1 0.84375 1 0.875 1 0.8125 1 0.8125 1 0.84375 1 0.8125 1 0.8125 1 0.84375 1 0.78125 1 0.78125 1 0.8125 1 0.78125 1 0.8125 1 0.8125 1 0.4495527 0.3833369 0.4717311 0.341844 0.4717311 0.341844 0.4717311 0.341844 0.4853885 0.2968217 0.4853885 0.2968217 0.4853885 0.2968217 0.49 0.25 0.49 0.25 0.49 0.25 0.49 0.25 0.4853885 0.2031783 0.75 1 0.78125 1 0.78125 1 0.71875 1 0.75 1 0.75 1 0.75 1 0.75 1 0.78125 1 0.71875 1 0.75 1 0.75 1 0.75 0.5 0.75 1 0.78125 1 0.75 0.5 0.71875 0.5 0.71875 1 0.6875 0.5 0.6875 1 0.71875 1 0.6875 1 0.71875 1 0.71875 1 0.65625 0.5 0.65625 1 0.6875 1 0.65625 1 0.6875 1 0.6875 1 0.6875 1 0.6875 1 0.71875 1 0.65625 1 0.6875 1 0.6875 1 0.4717311 0.158156 0.4717311 0.158156 0.4495527 0.1166631 0.4853885 0.2031783 0.4853885 0.2031783 0.4717311 0.158156 0.4495527 0.1166631 0.4495527 0.1166631 0.4197056 0.08029437 0.625 1 0.65625 1 0.65625 1 0.625 1 0.625 1 0.625 1 0.59375 1 0.625 1 0.625 1 0.65625 0.5 0.625 0.5 0.625 1 0.625 1 0.65625 1 0.65625 1 0.59375 0.5 0.59375 1 0.625 1 0.5625 0.5 0.5625 1 0.59375 1 0.5625 1 0.59375 1 0.59375 1 0.53125 0.5 0.53125 1 0.5625 1 0.53125 1 0.5625 1 0.5625 1 0.5 1 0.53125 1 0.53125 1 0.46875 1 0.5 1 0.5 1 0.5 0.5 0.5 1 0.53125 1 0.46875 0.5 0.46875 1 0.5 1 0.46875 0.5 0.4375 0.5 0.4375 1 0.4375 1 0.46875 1 0.46875 1 0.40625 0.5 0.40625 1 0.4375 1 0.40625 1 0.4375 1 0.4375 1 0.375 1 0.40625 1 0.40625 1 0.34375 1 0.34375 1 0.375 1 0.375 0.5 0.375 1 0.40625 1 0.34375 0.5 0.34375 1 0.375 1 0.3125 0.5 0.3125 1 0.34375 1 0.3125 1 0.34375 1 0.34375 1 0.28125 0.5 0.28125 1 0.3125 1 0.28125 1 0.3125 1 0.3125 1 0.25 1 0.25 1 0.28125 1 0.21875 1 0.25 1 0.25 1 0.25 0.5 0.25 1 0.28125 1 0.25 0.5 0.21875 0.5 0.21875 1 0.1875 0.5 0.1875 1 0.21875 1 0.1875 1 0.1875 1 0.21875 1 0.1875 0.5 0.15625 0.5 0.15625 1 0.15625 1 0.1875 1 0.1875 1 0.125 1 0.15625 1 0.15625 1 0.09375 1 0.125 1 0.125 1 0.15625 0.5 0.125 0.5 0.125 1 0.09375 0.5 0.09375 1 0.125 1 0.0625 0.5 0.0625 1 0.09375 1 0.0625 1 0.0625 1 0.09375 1 0.8125 0.5 0.78125 0.5 0.78125 1 0.8125 0.5 0.8125 1 0.84375 1 0.84375 0.5 0.84375 1 0.875 1 0.5048666 0.7800484 0.5048666 0.7800484 0.5048666 0.8750001 0.5048666 0.8750001 0.5048666 0.9699515 0.5048666 0.9699515 0.5048666 0.8750001 0.5048666 0.7800484 0.5048666 0.8750001</float_array>
          <technique_common>
            <accessor source="#Cube-mesh-map-0-array" count="2004" stride="2">
              <param name="S" type="float"/>
              <param name="T" type="float"/>
            </accessor>
          </technique_common>
        </source>
        <vertices id="Cube-mesh-vertices">
          <input semantic="POSITION" source="#Cube-mesh-positions"/>
        </vertices>
        <triangles material="Wall-material" count="116">
          <input semantic="VERTEX" source="#Cube-mesh-vertices" offset="0"/>
          <input semantic="NORMAL" source="#Cube-mesh-normals" offset="1"/>
          <input semantic="TEXCOORD" source="#Cube-mesh-map-0" offset="2" set="0"/>
          <p>31 0 0 25 0 1 27 0 2 4 1 3 39 1 4 12 1 5 21 2 6 24 2 7 20 2 8 19 3 9 26 3 10 16 3 11 28 1 12 22 1 13 18 1 14 5 0 15 49 0 16 8 0 17 18 1 18 23 1 19 19 1 20 16 3 21 29 3 22 17 3 23 20 2 24 17 2 25 29 2 26 2 2 27 47 2 28 11 2 29 27 0 30 30 0 31 28 0 32 11 2 33 57 2 34 3 2 35 5 4 36 16 4 37 17 4 38 1 4 39 18 4 40 19 4 41 6 5 42 20 5 43 10 5 44 3 5 45 22 5 46 11 5 47 5 4 48 24 4 49 12 4 50 6 5 51 25 5 52 21 5 53 3 5 54 26 5 55 23 5 56 0 4 57 27 4 58 28 4 59 1 4 60 16 4 61 8 4 62 0 4 63 18 4 64 9 4 65 7 5 66 20 5 67 29 5 68 2 5 69 22 5 70 30 5 71 4 4 72 24 4 73 31 4 74 2 5 75 25 5 76 13 5 77 7 5 78 26 5 79 14 5 80 4 4 81 27 4 82 15 4 83 1 2 84 35 2 85 9 2 86 10 1 90 55 1 91 6 1 92 3 0 99 61 0 100 14 0 101 14 0 102 67 0 103 7 0 104 13 3 105 68 3 106 2 3 107 0 3 108 63 3 109 15 3 110 15 3 111 70 3 112 4 3 113 8 0 114 52 0 115 1 0 116 6 3 117 59 3 118 13 3 119 9 2 120 64 2 121 0 2 122 12 1 123 50 1 124 5 1 125 7 1 126 44 1 127 10 1 128 44 2 132 95 2 133 55 2 134 64 0 135 103 0 136 63 0 137 68 1 141 81 1 142 47 1 143 57 3 153 101 3 154 61 3 155 67 2 156 78 2 157 44 2 158 52 1 159 74 1 160 35 1 161 48 0 168 91 0 169 51 0 170 55 0 174 99 0 175 59 0 176 63 0 177 110 0 178 70 0 179 50 3 183 89 3 184 49 3 185 70 2 222 75 2 223 39 2 224 59 0 228 108 0 229 68 0 230 49 3 231 92 3 232 52 3 233 47 1 234 97 1 235 57 1 236 53 0 237 88 0 238 48 0 239 61 3 243 106 3 244 67 3 245 35 1 246 104 1 247 64 1 248 39 2 249 90 2 250 50 2 251 31 0 765 21 0 766 25 0 767 4 1 768 70 1 769 39 1 770 21 2 771 31 2 772 24 2 773 19 3 774 23 3 775 26 3 776 28 1 777 30 1 778 22 1 779 5 0 780 50 0 781 49 0 782 18 1 783 22 1 784 23 1 785 16 3 786 26 3 787 29 3 788 20 2 789 24 2 790 17 2 791 2 2 792 68 2 793 47 2 794 27 0 795 25 0 796 30 0 797 11 2 798 47 2 799 57 2 800 5 4 801 8 4 802 16 4 803 1 4 804 9 4 805 18 4 806 6 5 807 21 5 808 20 5 809 3 5 810 23 5 811 22 5 812 5 4 813 17 4 814 24 4 815 6 5 816 13 5 817 25 5 818 3 5 819 14 5 820 26 5 821 0 4 822 15 4 823 27 4 824 1 4 825 19 4 826 16 4 827 0 4 828 28 4 829 18 4 830 7 5 831 10 5 832 20 5 833 2 5 834 11 5 835 22 5 836 4 4 837 12 4 838 24 4 839 2 5 840 30 5 841 25 5 842 7 5 843 29 5 844 26 5 845 4 4 846 31 4 847 27 4 848 1 2 849 52 2 850 35 2 851 10 1 861 44 1 862 55 1 863 3 0 882 57 0 883 61 0 884 14 0 885 61 0 886 67 0 887 13 3 888 59 3 889 68 3 890 0 3 891 64 3 892 63 3 893 15 3 894 63 3 895 70 3 896 8 0 897 49 0 898 52 0 899 6 3 900 55 3 901 59 3 902 9 2 903 35 2 904 64 2 905 12 1 906 39 1 907 50 1 908 7 1 909 67 1 910 44 1 911 44 2 915 78 2 916 95 2 917 64 0 918 104 0 919 103 0 920 68 1 930 108 1 931 81 1 932 57 3 942 97 3 943 101 3 944 67 2 945 106 2 946 78 2 947 52 1 948 92 1 949 74 1 950 48 0 963 88 0 964 91 0 965 55 0 975 95 0 976 99 0 977 63 0 978 103 0 979 110 0 980 50 3 984 90 3 985 89 3 986 70 2 1101 110 2 1102 75 2 1103 59 0 1113 99 0 1114 108 0 1115 49 3 1116 89 3 1117 92 3 1118 47 1 1119 81 1 1120 97 1 1121 53 0 1122 93 0 1123 88 0 1124 61 3 1128 101 3 1129 106 3 1130 35 1 1131 74 1 1132 104 1 1133 39 2 1134 75 2 1135 90 2 1136</p>
        </triangles>
        <triangles material="Door_handle-material" count="448">
          <input semantic="VERTEX" source="#Cube-mesh-vertices" offset="0"/>
          <input semantic="NORMAL" source="#Cube-mesh-normals" offset="1"/>
          <input semantic="TEXCOORD" source="#Cube-mesh-map-0" offset="2" set="0"/>
          <p>112 14 258 124 14 259 113 14 260 216 4 261 116 4 262 128 4 263 117 15 264 112 15 265 115 15 266 116 16 267 117 16 268 115 16 269 118 17 270 119 17 271 117 17 272 114 18 273 119 18 274 121 18 275 131 5 276 130 5 277 211 5 278 114 19 279 122 19 280 124 19 281 124 20 282 123 20 283 125 20 284 124 21 285 126 21 286 113 21 287 125 22 288 128 22 289 126 22 290 127 23 291 123 23 292 130 23 293 127 24 294 225 24 295 128 24 296 127 25 297 131 25 298 129 25 299 132 5 300 133 5 301 131 5 302 131 0 303 135 0 304 129 0 305 135 26 306 134 26 307 136 26 308 137 27 309 135 27 310 136 27 311 139 28 312 136 28 313 138 28 314 138 29 315 134 29 316 141 29 317 152 30 318 138 30 319 140 30 320 138 31 321 142 31 322 140 31 323 143 32 324 134 32 325 132 32 326 144 33 327 141 33 328 143 33 329 145 5 330 142 5 331 144 5 332 145 34 333 148 34 334 147 34 335 140 35 336 147 35 337 149 35 338 149 36 339 148 36 340 150 36 341 151 37 342 140 37 343 149 37 344 151 38 345 150 38 346 154 38 347 152 39 348 153 39 349 222 39 350 153 40 351 154 40 352 155 40 353 154 41 354 157 41 355 155 41 356 154 42 357 159 42 358 156 42 359 156 43 360 221 43 361 157 43 362 156 4 363 160 4 364 158 4 365 159 44 366 148 44 367 161 44 368 159 45 369 163 45 370 160 45 371 162 46 372 163 46 373 161 46 374 146 47 375 161 47 376 148 47 377 164 48 378 165 48 379 163 48 380 160 49 381 165 49 382 166 49 383 169 3 384 165 3 385 167 3 386 169 50 387 168 50 388 171 50 389 221 51 390 169 51 391 170 51 392 158 52 393 166 52 394 169 52 395 169 53 396 172 53 397 170 53 398 171 54 399 174 54 400 172 54 401 171 55 402 176 55 403 173 55 404 173 56 405 220 56 406 174 56 407 173 57 408 177 57 409 175 57 410 175 58 411 178 58 412 180 58 413 180 59 414 179 59 415 182 59 416 175 60 417 181 60 418 220 60 419 180 61 420 183 61 421 181 61 422 182 62 423 185 62 424 183 62 425 182 63 426 187 63 427 184 63 428 184 64 429 219 64 430 185 64 431 184 65 432 188 65 433 186 65 434 186 66 435 189 66 436 191 66 437 193 67 438 189 67 439 190 67 440 186 68 441 192 68 442 219 68 443 191 69 444 194 69 445 192 69 446 193 70 447 196 70 448 194 70 449 193 71 450 198 71 451 195 71 452 195 72 453 218 72 454 196 72 455 195 73 456 199 73 457 197 73 458 202 74 459 199 74 460 200 74 461 202 75 462 201 75 463 204 75 464 197 76 465 203 76 466 218 76 467 203 77 468 204 77 469 205 77 470 204 78 471 207 78 472 205 78 473 206 79 474 201 79 475 209 79 476 207 80 477 208 80 478 217 80 479 206 81 480 210 81 481 208 81 482 208 82 483 211 82 484 213 82 485 213 83 486 212 83 487 215 83 488 217 84 489 213 84 490 214 84 491 213 85 492 216 85 493 214 85 494 215 86 495 116 86 496 216 86 497 118 87 498 212 87 499 120 87 500 223 88 501 152 88 502 222 88 503 137 89 504 223 89 505 224 89 506 129 90 507 224 90 508 225 90 509 226 91 510 238 91 511 228 91 512 242 92 513 240 92 514 330 92 515 226 93 516 231 93 517 229 93 518 230 94 519 231 94 520 232 94 521 233 95 522 232 95 523 231 95 524 228 96 525 233 96 526 231 96 527 290 4 528 292 4 529 301 4 530 236 97 531 228 97 532 238 97 533 237 20 534 238 20 535 239 20 536 240 21 537 238 21 538 227 21 539 242 98 540 239 98 541 240 98 542 241 99 543 237 99 544 239 99 545 339 100 546 241 100 547 242 100 548 245 101 549 241 101 550 243 101 551 247 102 552 246 102 553 245 102 554 249 0 555 245 0 556 243 0 557 248 103 558 249 103 559 250 103 560 251 5 561 249 5 562 243 5 563 253 104 564 250 104 565 251 104 566 252 105 567 248 105 568 250 105 569 266 5 570 252 5 571 253 5 572 256 106 573 252 106 574 254 106 575 248 107 576 257 107 577 246 107 578 255 108 579 258 108 580 257 108 581 256 109 582 259 109 583 258 109 584 259 4 585 262 4 586 260 4 587 261 110 588 254 110 589 263 110 590 262 111 591 263 111 592 264 111 593 265 5 594 254 5 595 266 5 596 264 112 597 265 112 598 268 112 599 267 113 600 266 113 601 336 113 602 267 114 603 268 114 604 265 114 605 271 115 606 268 115 607 269 115 608 273 116 609 268 116 610 270 116 611 335 117 612 270 117 613 271 117 614 274 118 615 270 118 616 272 118 617 273 119 618 262 119 619 264 119 620 277 45 621 273 45 622 274 45 623 276 120 624 277 120 625 278 120 626 260 4 627 275 4 628 276 4 629 278 4 630 279 4 631 281 4 632 279 121 633 274 121 634 280 121 635 279 3 636 283 3 637 281 3 638 282 122 639 283 122 640 285 122 641 335 123 642 283 123 643 272 123 644 280 124 645 272 124 646 283 124 647 286 125 648 283 125 649 284 125 650 288 126 651 285 126 652 286 126 653 290 127 654 285 127 655 287 127 656 334 128 657 287 128 658 288 128 659 291 129 660 287 129 661 289 129 662 292 130 663 289 130 664 294 130 665 293 131 666 294 131 667 296 131 668 295 132 669 289 132 670 334 132 671 297 133 672 294 133 673 295 133 674 297 134 675 298 134 676 296 134 677 301 135 678 296 135 679 298 135 680 333 136 681 298 136 682 299 136 683 302 137 684 298 137 685 300 137 686 303 138 687 300 138 688 305 138 689 307 139 690 303 139 691 305 139 692 306 140 693 300 140 694 333 140 695 308 141 696 305 141 697 306 141 698 310 142 699 307 142 700 308 142 701 312 143 702 307 143 703 309 143 704 332 144 705 309 144 706 310 144 707 313 145 708 309 145 709 311 145 710 316 146 711 313 146 712 311 146 713 315 147 714 316 147 715 318 147 716 317 148 717 311 148 718 332 148 719 317 149 720 318 149 721 316 149 722 321 150 723 318 150 724 319 150 725 320 151 726 315 151 727 318 151 728 321 152 729 322 152 730 320 152 731 324 153 732 320 153 733 322 153 734 325 154 735 322 154 736 327 154 737 326 155 738 327 155 739 329 155 740 331 156 741 327 156 742 322 156 743 330 157 744 327 157 745 328 157 746 230 158 747 329 158 748 330 158 749 232 159 750 326 159 751 329 159 752 337 160 753 266 160 754 253 160 755 337 161 756 251 161 757 338 161 758 338 162 759 243 162 760 339 162 761 112 187 1155 114 187 1156 124 187 1157 115 4 1158 112 4 1159 113 4 1160 113 4 1161 126 4 1162 115 4 1163 126 4 1164 128 4 1165 116 4 1166 115 4 1167 126 4 1168 116 4 1169 128 188 1170 225 188 1171 214 188 1172 225 4 1173 224 4 1174 217 4 1175 224 4 1176 223 4 1177 217 4 1178 223 4 1179 222 4 1180 207 4 1181 217 4 1182 223 4 1183 207 4 1184 222 4 1185 153 4 1186 203 4 1187 153 4 1188 155 4 1189 218 4 1190 155 4 1191 157 4 1192 218 4 1193 157 4 1194 221 4 1195 196 4 1196 218 4 1197 157 4 1198 196 4 1199 221 189 1200 170 189 1201 192 189 1202 170 4 1203 172 4 1204 219 4 1205 172 4 1206 174 4 1207 219 4 1208 174 190 1209 220 190 1210 185 190 1211 219 4 1212 174 4 1213 185 4 1214 220 4 1215 181 4 1216 183 4 1217 183 4 1218 185 4 1219 220 4 1220 219 4 1221 192 4 1222 170 4 1223 192 4 1224 194 4 1225 221 4 1226 194 191 1227 196 191 1228 221 191 1229 218 4 1230 203 4 1231 153 4 1232 203 4 1233 205 4 1234 222 4 1235 205 192 1236 207 192 1237 222 192 1238 217 4 1239 214 4 1240 225 4 1241 214 4 1242 216 4 1243 128 4 1244 117 193 1245 114 193 1246 112 193 1247 116 194 1248 118 194 1249 117 194 1250 118 195 1251 120 195 1252 119 195 1253 114 196 1254 117 196 1255 119 196 1256 123 197 1257 122 197 1258 120 197 1259 122 198 1260 121 198 1261 120 198 1262 121 199 1263 119 199 1264 120 199 1265 120 200 1266 212 200 1267 123 200 1268 212 201 1269 211 201 1270 130 201 1271 123 202 1272 212 202 1273 130 202 1274 211 5 1275 210 5 1276 131 5 1277 210 203 1278 209 203 1279 132 203 1280 131 5 1281 210 5 1282 132 5 1283 209 204 1284 201 204 1285 144 204 1286 201 205 1287 200 205 1288 145 205 1289 200 206 1290 199 206 1291 146 206 1292 199 5 1293 198 5 1294 162 5 1295 198 5 1296 190 5 1297 162 5 1298 190 207 1299 189 207 1300 164 207 1301 162 208 1302 190 208 1303 164 208 1304 189 5 1305 188 5 1306 167 5 1307 188 209 1308 187 209 1309 168 209 1310 167 5 1311 188 5 1312 168 5 1313 187 5 1314 179 5 1315 176 5 1316 179 5 1317 178 5 1318 176 5 1319 178 210 1320 177 210 1321 176 210 1322 176 211 1323 168 211 1324 187 211 1325 167 5 1326 164 5 1327 189 5 1328 162 212 1329 146 212 1330 199 212 1331 146 213 1332 145 213 1333 200 213 1334 145 214 1335 144 214 1336 201 214 1337 144 215 1338 143 215 1339 209 215 1340 143 216 1341 132 216 1342 209 216 1343 114 217 1344 121 217 1345 122 217 1346 124 218 1347 122 218 1348 123 218 1349 124 21 1350 125 21 1351 126 21 1352 125 219 1353 127 219 1354 128 219 1355 127 220 1356 125 220 1357 123 220 1358 127 221 1359 129 221 1360 225 221 1361 127 222 1362 130 222 1363 131 222 1364 132 223 1365 134 223 1366 133 223 1367 131 0 1368 133 0 1369 135 0 1370 135 224 1371 133 224 1372 134 224 1373 137 4 1374 129 4 1375 135 4 1376 139 120 1377 137 120 1378 136 120 1379 138 105 1380 136 105 1381 134 105 1382 152 4 1383 139 4 1384 138 4 1385 138 225 1386 141 225 1387 142 225 1388 143 226 1389 141 226 1390 134 226 1391 144 227 1392 142 227 1393 141 227 1394 145 228 1395 147 228 1396 142 228 1397 145 5 1398 146 5 1399 148 5 1400 140 35 1401 142 35 1402 147 35 1403 149 229 1404 147 229 1405 148 229 1406 151 4 1407 152 4 1408 140 4 1409 151 230 1410 149 230 1411 150 230 1412 152 231 1413 151 231 1414 153 231 1415 153 232 1416 151 232 1417 154 232 1418 154 41 1419 156 41 1420 157 41 1421 154 233 1422 150 233 1423 159 233 1424 156 234 1425 158 234 1426 221 234 1427 156 235 1428 159 235 1429 160 235 1430 159 119 1431 150 119 1432 148 119 1433 159 236 1434 161 236 1435 163 236 1436 162 5 1437 164 5 1438 163 5 1439 146 5 1440 162 5 1441 161 5 1442 164 5 1443 167 5 1444 165 5 1445 160 237 1446 163 237 1447 165 237 1448 169 3 1449 166 3 1450 165 3 1451 169 238 1452 167 238 1453 168 238 1454 221 239 1455 158 239 1456 169 239 1457 158 240 1458 160 240 1459 166 240 1460 169 241 1461 171 241 1462 172 241 1463 171 242 1464 173 242 1465 174 242 1466 171 243 1467 168 243 1468 176 243 1469 173 244 1470 175 244 1471 220 244 1472 173 245 1473 176 245 1474 177 245 1475 175 246 1476 177 246 1477 178 246 1478 180 247 1479 178 247 1480 179 247 1481 175 60 1482 180 60 1483 181 60 1484 180 61 1485 182 61 1486 183 61 1487 182 248 1488 184 248 1489 185 248 1490 182 249 1491 179 249 1492 187 249 1493 184 250 1494 186 250 1495 219 250 1496 184 65 1497 187 65 1498 188 65 1499 186 251 1500 188 251 1501 189 251 1502 193 139 1503 191 139 1504 189 139 1505 186 252 1506 191 252 1507 192 252 1508 191 253 1509 193 253 1510 194 253 1511 193 254 1512 195 254 1513 196 254 1514 193 255 1515 190 255 1516 198 255 1517 195 256 1518 197 256 1519 218 256 1520 195 257 1521 198 257 1522 199 257 1523 202 258 1524 197 258 1525 199 258 1526 202 259 1527 200 259 1528 201 259 1529 197 260 1530 202 260 1531 203 260 1532 203 261 1533 202 261 1534 204 261 1535 204 262 1536 206 262 1537 207 262 1538 206 263 1539 204 263 1540 201 263 1541 207 264 1542 206 264 1543 208 264 1544 206 265 1545 209 265 1546 210 265 1547 208 266 1548 210 266 1549 211 266 1550 213 267 1551 211 267 1552 212 267 1553 217 268 1554 208 268 1555 213 268 1556 213 85 1557 215 85 1558 216 85 1559 215 269 1560 118 269 1561 116 269 1562 118 270 1563 215 270 1564 212 270 1565 223 160 1566 139 160 1567 152 160 1568 137 271 1569 139 271 1570 223 271 1571 129 272 1572 137 272 1573 224 272 1574 226 273 1575 227 273 1576 238 273 1577 227 5 1578 226 5 1579 229 5 1580 229 5 1581 230 5 1582 227 5 1583 230 5 1584 330 5 1585 240 5 1586 227 5 1587 230 5 1588 240 5 1589 330 5 1590 328 5 1591 339 5 1592 328 5 1593 331 5 1594 338 5 1595 331 5 1596 321 5 1597 338 5 1598 321 5 1599 319 5 1600 337 5 1601 338 274 1602 321 274 1603 337 274 1604 319 5 1605 317 5 1606 267 5 1607 317 275 1608 332 275 1609 269 275 1610 332 5 1611 310 5 1612 269 5 1613 310 5 1614 308 5 1615 271 5 1616 269 5 1617 310 5 1618 271 5 1619 308 276 1620 306 276 1621 284 276 1622 306 277 1623 333 277 1624 286 277 1625 333 278 1626 299 278 1627 286 278 1628 299 279 1629 297 279 1630 288 279 1631 286 5 1632 299 5 1633 288 5 1634 297 5 1635 295 5 1636 334 5 1637 334 280 1638 288 280 1639 297 280 1640 286 281 1641 284 281 1642 306 281 1643 284 5 1644 335 5 1645 308 5 1646 335 5 1647 271 5 1648 308 5 1649 269 5 1650 267 5 1651 317 5 1652 267 282 1653 336 282 1654 319 282 1655 336 283 1656 337 283 1657 319 283 1658 338 5 1659 339 5 1660 328 5 1661 339 284 1662 242 284 1663 330 284 1664 226 285 1665 228 285 1666 231 285 1667 230 286 1668 229 286 1669 231 286 1670 233 287 1671 234 287 1672 232 287 1673 228 288 1674 235 288 1675 233 288 1676 235 289 1677 236 289 1678 237 289 1679 237 290 1680 244 290 1681 234 290 1682 244 291 1683 245 291 1684 326 291 1685 234 292 1686 244 292 1687 326 292 1688 245 4 1689 246 4 1690 325 4 1691 246 293 1692 257 293 1693 324 293 1694 325 4 1695 246 4 1696 324 4 1697 257 294 1698 258 294 1699 323 294 1700 258 295 1701 259 295 1702 315 295 1703 323 296 1704 258 296 1705 315 296 1706 259 297 1707 260 297 1708 314 297 1709 260 4 1710 276 4 1711 313 4 1712 314 298 1713 260 298 1714 313 298 1715 276 4 1716 278 4 1717 312 4 1718 278 4 1719 281 4 1720 304 4 1721 312 4 1722 278 4 1723 304 4 1724 281 299 1725 282 299 1726 303 299 1727 282 300 1728 290 300 1729 302 300 1730 303 4 1731 282 4 1732 302 4 1733 290 301 1734 291 301 1735 292 301 1736 292 301 1737 293 301 1738 301 301 1739 301 302 1740 302 302 1741 290 302 1742 303 4 1743 304 4 1744 281 4 1745 312 4 1746 313 4 1747 276 4 1748 314 303 1749 315 303 1750 259 303 1751 323 304 1752 324 304 1753 257 304 1754 325 4 1755 326 4 1756 245 4 1757 234 305 1758 233 305 1759 235 305 1760 235 306 1761 237 306 1762 234 306 1763 236 307 1764 235 307 1765 228 307 1766 237 218 1767 236 218 1768 238 218 1769 240 308 1770 239 308 1771 238 308 1772 242 309 1773 241 309 1774 239 309 1775 241 99 1776 244 99 1777 237 99 1778 339 310 1779 243 310 1780 241 310 1781 245 101 1782 244 101 1783 241 101 1784 247 4 1785 248 4 1786 246 4 1787 249 0 1788 247 0 1789 245 0 1790 248 311 1791 247 311 1792 249 311 1793 251 312 1794 250 312 1795 249 312 1796 253 313 1797 252 313 1798 250 313 1799 252 29 1800 255 29 1801 248 29 1802 266 314 1803 254 314 1804 252 314 1805 256 315 1806 255 315 1807 252 315 1808 248 316 1809 255 316 1810 257 316 1811 255 317 1812 256 317 1813 258 317 1814 256 4 1815 261 4 1816 259 4 1817 259 318 1818 261 318 1819 262 318 1820 261 110 1821 256 110 1822 254 110 1823 262 319 1824 261 319 1825 263 319 1826 265 320 1827 263 320 1828 254 320 1829 264 321 1830 263 321 1831 265 321 1832 267 322 1833 265 322 1834 266 322 1835 267 323 1836 269 323 1837 268 323 1838 271 324 1839 270 324 1840 268 324 1841 273 5 1842 264 5 1843 268 5 1844 335 325 1845 272 325 1846 270 325 1847 274 5 1848 273 5 1849 270 5 1850 273 326 1851 275 326 1852 262 326 1853 277 236 1854 275 236 1855 273 236 1856 276 327 1857 275 327 1858 277 327 1859 260 4 1860 262 4 1861 275 4 1862 278 102 1863 277 102 1864 279 102 1865 279 328 1866 277 328 1867 274 328 1868 279 3 1869 280 3 1870 283 3 1871 282 329 1872 281 329 1873 283 329 1874 335 330 1875 284 330 1876 283 330 1877 280 331 1878 274 331 1879 272 331 1880 286 332 1881 285 332 1882 283 332 1883 288 333 1884 287 333 1885 285 333 1886 290 334 1887 282 334 1888 285 334 1889 334 335 1890 289 335 1891 287 335 1892 291 336 1893 290 336 1894 287 336 1895 292 246 1896 291 246 1897 289 246 1898 293 247 1899 292 247 1900 294 247 1901 295 337 1902 294 337 1903 289 337 1904 297 338 1905 296 338 1906 294 338 1907 297 339 1908 299 339 1909 298 339 1910 301 340 1911 293 340 1912 296 340 1913 333 341 1914 300 341 1915 298 341 1916 302 342 1917 301 342 1918 298 342 1919 303 343 1920 302 343 1921 300 343 1922 307 344 1923 304 344 1924 303 344 1925 306 140 1926 305 140 1927 300 140 1928 308 345 1929 307 345 1930 305 345 1931 310 346 1932 309 346 1933 307 346 1934 312 347 1935 304 347 1936 307 347 1937 332 348 1938 311 348 1939 309 348 1940 313 145 1941 312 145 1942 309 145 1943 316 349 1944 314 349 1945 313 349 1946 315 350 1947 314 350 1948 316 350 1949 317 351 1950 316 351 1951 311 351 1952 317 352 1953 319 352 1954 318 352 1955 321 353 1956 320 353 1957 318 353 1958 320 354 1959 323 354 1960 315 354 1961 321 355 1962 331 355 1963 322 355 1964 324 356 1965 323 356 1966 320 356 1967 325 266 1968 324 266 1969 322 266 1970 326 357 1971 325 357 1972 327 357 1973 331 358 1974 328 358 1975 327 358 1976 330 157 1977 329 157 1978 327 157 1979 230 359 1980 232 359 1981 329 359 1982 232 360 1983 234 360 1984 326 360 1985 337 361 1986 336 361 1987 266 361 1988 337 362 1989 253 362 1990 251 362 1991 338 363 1992 251 363 1993 243 363 1994</p>
        </triangles>
        <triangles material="Door_frame-material" count="88">
          <input semantic="VERTEX" source="#Cube-mesh-vertices" offset="0"/>
          <input semantic="NORMAL" source="#Cube-mesh-normals" offset="1"/>
          <input semantic="TEXCOORD" source="#Cube-mesh-map-0" offset="2" set="0"/>
          <p>37 1 129 111 1 130 71 1 131 62 3 138 111 3 139 102 3 140 54 1 144 80 1 145 43 1 146 45 2 147 109 2 148 69 2 149 36 2 150 93 2 151 53 2 152 86 3 162 79 3 163 42 3 164 42 1 165 107 1 166 66 1 167 85 0 171 76 0 172 37 0 173 65 2 180 73 2 181 34 2 182 85 4 189 72 4 190 84 4 191 73 6 192 105 6 193 104 6 194 81 7 195 109 7 196 82 7 197 87 5 198 79 5 199 86 5 200 99 8 201 94 8 202 98 8 203 89 9 204 91 9 205 88 9 206 75 10 207 111 10 208 76 10 209 106 11 210 107 11 211 79 11 212 33 3 213 77 3 214 84 3 215 98 3 216 94 3 217 54 3 218 56 2 219 83 2 220 46 2 221 100 0 225 96 0 226 56 0 227 51 1 240 77 1 241 38 1 242 101 12 252 96 12 253 100 12 254 103 13 255 105 13 256 102 13 257 40 0 762 80 0 763 87 0 764 37 1 912 76 1 913 111 1 914 105 3 921 65 3 922 62 3 923 62 3 924 71 3 925 111 3 926 102 3 927 105 3 928 62 3 929 54 1 933 94 1 934 80 1 935 45 2 936 82 2 937 109 2 938 36 2 939 72 2 940 93 2 941 42 3 951 41 3 952 86 3 953 41 3 954 46 3 955 86 3 956 46 3 957 83 3 958 86 3 959 42 1 960 79 1 961 107 1 962 37 0 966 32 0 967 85 0 968 32 0 969 34 0 970 85 0 971 34 0 972 73 0 973 85 0 974 65 2 981 105 2 982 73 2 983 77 4 996 76 4 997 85 4 998 85 4 999 73 4 1000 72 4 1001 84 4 1002 77 4 1003 85 4 1004 104 163 1005 74 163 1006 73 163 1007 74 164 1008 92 164 1009 72 164 1010 73 165 1011 74 165 1012 72 165 1013 92 166 1014 93 166 1015 72 166 1016 82 167 1017 83 167 1018 81 167 1019 83 168 1020 96 168 1021 81 168 1022 96 169 1023 97 169 1024 81 169 1025 81 170 1026 108 170 1027 109 170 1028 83 5 1029 82 5 1030 87 5 1031 87 5 1032 80 5 1033 79 5 1034 86 5 1035 83 5 1036 87 5 1037 109 171 1038 108 171 1039 99 171 1040 99 172 1041 95 172 1042 94 172 1043 98 8 1044 109 8 1045 99 8 1046 93 173 1047 92 173 1048 89 173 1049 89 174 1050 90 174 1051 91 174 1052 88 9 1053 93 9 1054 89 9 1055 76 175 1056 77 175 1057 75 175 1058 77 176 1059 91 176 1060 75 176 1061 91 177 1062 90 177 1063 75 177 1064 75 178 1065 110 178 1066 111 178 1067 79 179 1068 80 179 1069 78 179 1070 80 180 1071 94 180 1072 78 180 1073 94 181 1074 95 181 1075 78 181 1076 78 182 1077 106 182 1078 79 182 1079 72 3 1080 36 3 1081 33 3 1082 33 3 1083 38 3 1084 77 3 1085 84 3 1086 72 3 1087 33 3 1088 54 3 1089 58 3 1090 98 3 1091 58 3 1092 69 3 1093 98 3 1094 69 3 1095 109 3 1096 98 3 1097 56 2 1098 96 2 1099 83 2 1100 56 0 1104 60 0 1105 100 0 1106 60 0 1107 66 0 1108 100 0 1109 66 0 1110 107 0 1111 100 0 1112 51 1 1125 91 1 1126 77 1 1127 107 183 1137 106 183 1138 101 183 1139 101 184 1140 97 184 1141 96 184 1142 100 12 1143 107 12 1144 101 12 1145 111 185 1146 110 185 1147 103 185 1148 103 186 1149 104 186 1150 105 186 1151 102 13 1152 111 13 1153 103 13 1154 82 0 1995 45 0 1996 40 0 1997 40 0 1998 43 0 1999 80 0 2000 87 0 2001 82 0 2002 40 0 2003</p>
        </triangles>
        <triangles material="Door_glass-material" count="16">
          <input semantic="VERTEX" source="#Cube-mesh-vertices" offset="0"/>
          <input semantic="NORMAL" source="#Cube-mesh-normals" offset="1"/>
          <input semantic="TEXCOORD" source="#Cube-mesh-map-0" offset="2" set="0"/>
          <p>62 4 87 34 4 88 32 4 89 58 5 93 43 5 94 40 5 95 41 5 96 66 5 97 60 5 98 33 4 186 53 4 187 48 4 188 32 4 852 37 4 853 71 4 854 62 4 855 65 4 856 34 4 857 32 4 858 71 4 859 62 4 860 40 5 864 45 5 865 69 5 866 58 5 867 54 5 868 43 5 869 40 5 870 69 5 871 58 5 872 60 5 873 56 5 874 46 5 875 41 5 876 42 5 877 66 5 878 60 5 879 46 5 880 41 5 881 48 4 987 51 4 988 38 4 989 33 4 990 36 4 991 53 4 992 48 4 993 38 4 994 33 4 995</p>
        </triangles>
      </mesh>
    </geometry>
  </library_geometries>
  <library_visual_scenes>
    <visual_scene id="Scene" name="Scene">
      <node id="door" name="door" type="NODE">
        <matrix sid="transform">1 0 0 0 0 1 0 0 0 0 1 0 0 0 0 1</matrix>
        <instance_geometry url="#Cube-mesh" name="door">
          <bind_material>
            <technique_common>
              <instance_material symbol="Wall-material" target="#Wall-material">
                <bind_vertex_input semantic="UVMap" input_semantic="TEXCOORD" input_set="0"/>
              </instance_material>
              <instance_material symbol="Door_handle-material" target="#Door_handle-material">
                <bind_vertex_input semantic="UVMap" input_semantic="TEXCOORD" input_set="0"/>
              </instance_material>
              <instance_material symbol="Door_frame-material" target="#Door_frame-material">
                <bind_vertex_input semantic="UVMap" input_semantic="TEXCOORD" input_set="0"/>
              </instance_material>
              <instance_material symbol="Door_glass-material" target="#Door_glass-material">
                <bind_vertex_input semantic="UVMap" input_semantic="TEXCOORD" input_set="0"/>
              </instance_material>
            </technique_common>
          </bind_material>
        </instance_geometry>
      </node>
    </visual_scene>
  </library_visual_scenes>
  <scene>
    <instance_visual_scene url="#Scene"/>
  </scene>
</COLLADA>