[
  {
    "name": "CBP Officer",
    "text": "Hello, welcome to the United States!"
  },
  {
    "name": "CBP Officer",
    "text": "Why did you come to the US?"
  },
  {
    "name": "Immigrant",
    "text": "I came here to immigrate here."
  },
  {
    "name": "CBP Officer",
    "text": "Ok, but I mean..."
  },
  {
    "name": "CBP Officer",
    "text": "Exactly **why** did you come here?"
  },
  {
    "name": "Immigrant",
    "text": "I came here because life is just better here."
  },
  {
    "name": "Immigrant",
    "text": "Where I'm from, Indonesia..."
  },
  {
    "name": "Immigrant",
    "text": "I lived through turbulent political climates..."
  },
  {
    "name": "Immigrant",
    "text": "I lived through religious and ethnic troubles..."
  },
  {
    "name": "Immigrant",
    "text": "I lived through corruption and economical issues."
  },
  {
    "name": "CBP Officer",
    "text": "Then you're sure as well lucky to come here!"
  },
  {
    "name": "CBP Officer",
    "text": "The connection is slow here,"
  },
  {
    "name": "CBP Officer",
    "text": "So do you mind if you tell me a bit about..."
  },
  {
    "name": "CBP Officer",
    "text": "your culture?"
  },
  {
    "name": "Immigrant",
    "text": "Hmmm, sure. Well for one..."
  },
  {
    "name": "Immigrant",
    "text": "We don't value work like Americans do."
  },
  {
    "name": "Immigrant",
    "text": "But, we really value hospitality."
  },
  {
    "name": "Immigrant",
    "text": "And, our food culture revolves around spice"
  },
  {
    "name": "Immigrant",
    "text": "Spice is really something Americans are weak at."
  },
  {
    "name": "CBP Officer",
    "text": "... Oh, looks like you're paperwork is in order"
  },
  {
    "name": "CBP Officer",
    "text": "Welcome to the United States!"
  }
]
