[
  {
    "name": "**Sponsor**",
    "text": "Brought to you by Raid Shadow Legends!"
  },
  {
    "name": "**Time**",
    "text": "*15 hours later...*"
  },
  {
    "name": "MC",
    "text": "**sniff**, hmm..."
  },
  {
    "name": "MC",
    "text": "I gotta go meet my boss..."
  },
  {
    "name": "MC",
    "text": "He should be outside the office."
  }
]
